MENTAL EFFORT
LEVEL; VALUE
1; -2
2; -5
3; -10
4; -8
5; -6
6; 0
7; -5
8; 0
COMPLEXITY
LEVEL; VALUE
1; -3
2; -5
3; -10
4; -6
5; -4
6; 0
7; -6
8; 0

COMBINATION DIFFICULT
LEVEL; CARD; FIELD; VALUE
1; PCMove1; FieldSimpleCon; 2
2; PCMove3; FieldDoubleCon; 3
2; PCMove2; FieldSimpleCon; 3
2; PCRL; FieldStandard; 0
3; PCMove2; FieldSimpleCon; 1
3; PCRL; FieldStandard; 0
3; PCRL; FieldStandard; 0
3; PCMove2; FieldStandard; 0
3; PCMove2; Goal; 0
4; PCMove1; FieldSimpleCon; 1
4; PCRR; FieldStandard; 0
4; PCMove2; FieldSimpleCon; 1
4; PCRL; FieldStandard; 0
4; PCMove2; Goal; 0
5; PCMove2; FieldSimpleCon; 1
5; PCRL; FieldStandard; 0
5; PCMove1; FieldRR; 4
5; PCBack; FieldRL; 3
5; PCMove1; Goal; 0
6; PCMove1; FieldDoubleCon; 0
7; PCMove1; FieldSimpleCon; 0
7; PCMove1; FieldStandard; 0
8; PCMove1; FieldSimpleCon; 0
8; PCMove1; FieldRR; 4
8; PCBack; FieldRL; 4
8; PCMove3; FieldRR; 4
8; PCMove1; Goal; 0
FINAL CARD DIFFICULTIES
LEVEL; VALUE
1; 2
2; 0
3; 0
4; 2
5; 0
6; 0
7; 4
FINAL FIELD DIFFICULTIES
LEVEL; VALUE
1; 0
2; 1
3; 3
4; 3
