%YAML 1.1
%TAG !u! tag:unity3d.com,2011:
--- !u!114 &11400000
MonoBehaviour:
  m_ObjectHideFlags: 0
  m_CorrespondingSourceObject: {fileID: 0}
  m_PrefabInstance: {fileID: 0}
  m_PrefabAsset: {fileID: 0}
  m_GameObject: {fileID: 0}
  m_Enabled: 1
  m_EditorHideFlags: 0
  m_Script: {fileID: 11500000, guid: bbb281ee3bf0b054c82ac2347e9e782c, type: 3}
  m_Name: Default Local Group
  m_EditorClassIdentifier: 
  m_GroupName: Default Local Group
  m_Data:
    m_SerializedData: []
  m_GUID: 0ca20654b8baf114f84d09425e5bbeb6
  m_SerializeEntries: []
  m_ReadOnly: 0
  m_Settings: {fileID: 11400000, guid: 3a3057a693e4f304ea713f0c787f0519, type: 2}
  m_SchemaSet:
    m_Schemas:
    - {fileID: 11400000, guid: d23517bed484b6742be147459867db5e, type: 2}
    - {fileID: 11400000, guid: 44d4e4443d421cb4a84dc744e0c8835d, type: 2}
