%YAML 1.1
%TAG !u! tag:unity3d.com,2011:
--- !u!114 &11400000
MonoBehaviour:
  m_ObjectHideFlags: 0
  m_CorrespondingSourceObject: {fileID: 0}
  m_PrefabInstance: {fileID: 0}
  m_PrefabAsset: {fileID: 0}
  m_GameObject: {fileID: 0}
  m_Enabled: 1
  m_EditorHideFlags: 0
  m_Script: {fileID: 11500000, guid: bbb281ee3bf0b054c82ac2347e9e782c, type: 3}
  m_Name: Localization-Assets-English (en)
  m_EditorClassIdentifier: 
  m_GroupName: Localization-Assets-English (en)
  m_Data:
    m_SerializedData: []
  m_GUID: 8825c99f8ce9294428847995ffd63393
  m_SerializeEntries:
  - m_GUID: 5f606ffe36cb94e4fb873d190d84f715
    m_Address: de
    m_ReadOnly: 1
    m_SerializedLabels:
    - Locale-en
  - m_GUID: 1aaacedea634ed64285c18fd26d45ed1
    m_Address: Controller_Bindings_Vive_ENG
    m_ReadOnly: 1
    m_SerializedLabels:
    - Locale-en
  - m_GUID: 869a092f726efbb49ba0f224ae762aa4
    m_Address: Controller_Bindings_Oculus_ENG
    m_ReadOnly: 1
    m_SerializedLabels:
    - Locale-en
  m_ReadOnly: 1
  m_Settings: {fileID: 11400000, guid: 3a3057a693e4f304ea713f0c787f0519, type: 2}
  m_SchemaSet:
    m_Schemas:
    - {fileID: 11400000, guid: b4a2cc72fe73589439bd0be88042ab90, type: 2}
    - {fileID: 11400000, guid: 2b5351cd750ad3445aba8a2a59ac5550, type: 2}
