%YAML 1.1
%TAG !u! tag:unity3d.com,2011:
--- !u!114 &11400000
MonoBehaviour:
  m_ObjectHideFlags: 0
  m_CorrespondingSourceObject: {fileID: 0}
  m_PrefabInstance: {fileID: 0}
  m_PrefabAsset: {fileID: 0}
  m_GameObject: {fileID: 0}
  m_Enabled: 1
  m_EditorHideFlags: 0
  m_Script: {fileID: 11500000, guid: bbb281ee3bf0b054c82ac2347e9e782c, type: 3}
  m_Name: Localization-Locales
  m_EditorClassIdentifier: 
  m_GroupName: Localization-Locales
  m_Data:
    m_SerializedData: []
  m_GUID: 0cb3b6a0e8677924aac4be56ba439275
  m_SerializeEntries:
  - m_GUID: 9db6f14e659531343a9475d61d808fa0
    m_Address: German (de)
    m_ReadOnly: 1
    m_SerializedLabels:
    - Locale
  - m_GUID: bcf0118831c00ef4a929d3801fb9ca1f
    m_Address: English (en)
    m_ReadOnly: 1
    m_SerializedLabels:
    - Locale
  m_ReadOnly: 1
  m_Settings: {fileID: 11400000, guid: 3a3057a693e4f304ea713f0c787f0519, type: 2}
  m_SchemaSet:
    m_Schemas:
    - {fileID: 11400000, guid: d1db6a53f7ff9e340bdf7852fa92b30b, type: 2}
    - {fileID: 11400000, guid: 0b53786d52cd2454eb4baab60b61aa53, type: 2}
