%YAML 1.1
%TAG !u! tag:unity3d.com,2011:
--- !u!114 &11400000
MonoBehaviour:
  m_ObjectHideFlags: 0
  m_CorrespondingSourceObject: {fileID: 0}
  m_PrefabInstance: {fileID: 0}
  m_PrefabAsset: {fileID: 0}
  m_GameObject: {fileID: 0}
  m_Enabled: 1
  m_EditorHideFlags: 0
  m_Script: {fileID: 11500000, guid: bbb281ee3bf0b054c82ac2347e9e782c, type: 3}
  m_Name: Localization-Assets-German (de)
  m_EditorClassIdentifier: 
  m_GroupName: Localization-Assets-German (de)
  m_Data:
    m_SerializedData: []
  m_GUID: 43291ef7a47b60249a37d75b6fa73750
  m_SerializeEntries:
  - m_GUID: e45250dc31be3f4418cc056acdb5c4f8
    m_Address: en
    m_ReadOnly: 1
    m_SerializedLabels:
    - Locale-de
  - m_GUID: d962ee9f705b82d49b470c3451b5236b
    m_Address: Controller_Bindings_Vive_DE
    m_ReadOnly: 1
    m_SerializedLabels:
    - Locale-de
  - m_GUID: 4b03139850a7188409403e45e8130707
    m_Address: Controller_Bindings_Oculus_DE
    m_ReadOnly: 1
    m_SerializedLabels:
    - Locale-de
  m_ReadOnly: 1
  m_Settings: {fileID: 11400000, guid: 3a3057a693e4f304ea713f0c787f0519, type: 2}
  m_SchemaSet:
    m_Schemas:
    - {fileID: 11400000, guid: a79c0f6da2694474cacbeba4c507b7b6, type: 2}
    - {fileID: 11400000, guid: 038a4077dafe4b54e962bca970ac59bd, type: 2}
