FIELD MATRICES;;;;;;;;;;;;;;
LEVEL;;;;;;;;;;;;;;
0;;;;;;;;;;;;;;
0;0;0;0;0;0;0;0;0;0;0;0;0;0;0
0;0;0;0;0;0;0;0;0;0;0;0;0;0;0
0;0;0;0;0;0;0;0;0;0;0;0;0;0;0
0;0;0;0;0;0;0;0;0;0;0;0;0;0;0
0;0;0;0;0;0;0;0;0;0;0;0;0;0;0
0;0;0;0;0;0;0;8;0;0;0;0;0;0;0
0;0;0;0;0;0;9;4;0;0;0;0;0;0;0
0;0;0;0;0;0;0;4;0;0;0;0;0;0;0
0;0;0;0;0;0;0;6;0;0;0;0;0;0;0
0;0;0;0;0;0;0;0;0;0;0;0;0;0;0
0;0;0;0;0;0;0;0;0;0;0;0;0;0;0
0;0;0;0;0;0;0;0;0;0;0;0;0;0;0
0;0;0;0;0;0;0;0;0;0;0;0;0;0;0
0;0;0;0;0;0;0;0;0;0;0;0;0;0;0
0;0;0;0;0;0;0;0;0;0;0;0;0;0;0
LEVEL;;;;;;;;;;;;;;
1;;;;;;;;;;;;;;
0;0;0;0;0;0;0;0;0;0;0;0;0;0;0
0;0;0;0;0;0;0;0;0;0;0;0;0;0;0
0;0;0;0;0;0;0;0;0;0;0;0;0;0;0
0;0;0;0;0;0;0;0;0;0;0;0;0;0;0
0;0;0;0;0;0;0;0;0;0;0;0;0;0;0
0;0;0;0;0;0;0;0;0;0;0;0;0;0;0
0;0;0;0;0;0;9;4;0;0;0;0;0;0;0
0;0;0;0;0;0;0;4;0;0;0;0;0;0;0
0;0;0;0;0;0;0;0;0;0;0;8;0;0;0
0;0;0;0;0;0;0;0;0;0;0;0;0;0;0
0;0;0;0;0;0;0;0;0;0;0;0;0;0;0
0;0;0;0;0;0;0;0;0;0;0;0;0;0;0
0;0;0;0;0;0;0;0;0;0;0;0;0;0;0
0;0;0;0;0;0;0;0;0;0;0;0;0;0;0
0;0;0;0;0;0;0;0;0;0;0;0;0;0;0
LEVEL;;;;;;;;;;;;;;
2;;;;;;;;;;;;;;
0;0;0;0;0;0;0;0;0;0;0;0;0;0;0
0;0;0;0;0;0;0;0;0;0;0;0;0;0;0
0;0;0;0;0;0;0;0;0;0;0;0;0;0;0
0;0;0;0;0;0;0;0;0;0;0;0;0;0;0
0;0;0;0;0;0;0;0;0;0;0;0;0;0;0
0;0;0;0;0;0;0;0;0;0;0;0;0;0;0
0;0;0;0;0;0;9;0;0;0;0;6;0;0;0
0;0;0;0;0;0;0;0;0;0;0;0;0;0;0
0;0;0;0;0;0;0;0;0;8;0;2;0;0;0
0;0;0;0;0;0;0;0;0;0;0;0;0;0;0
0;0;0;0;0;0;0;0;0;0;0;0;0;0;0
0;0;0;0;0;0;0;0;0;0;0;0;0;0;0
0;0;0;0;0;0;0;0;0;0;0;0;0;0;0
0;0;0;0;0;0;0;0;0;0;0;0;0;0;0
0;0;0;0;0;0;0;0;0;0;0;0;0;0;0
LEVEL;;;;;;;;;;;;;;
3;;;;;;;;;;;;;;
0;0;0;0;0;0;0;0;0;0;0;0;0;0;0
0;0;0;0;0;0;0;0;0;0;0;0;0;0;0
0;0;0;0;0;0;0;0;0;0;0;0;0;0;0
0;0;0;0;0;0;0;0;0;0;0;0;0;0;0
0;0;0;0;0;0;0;0;0;0;8;0;0;0;0
0;0;0;0;0;0;0;0;0;0;0;0;0;0;0
0;0;0;0;0;0;9;0;0;0;2;0;0;0;0
0;0;0;0;0;0;0;0;0;0;0;0;0;0;0
0;0;0;0;0;0;0;0;0;0;0;0;0;0;0
0;0;0;0;0;0;0;0;0;0;0;0;0;0;0
0;0;0;0;0;0;0;0;0;0;0;0;0;0;0
0;0;0;0;0;0;0;0;0;0;0;0;0;0;0
0;0;0;0;0;0;0;0;0;0;0;0;0;0;0
0;0;0;0;0;0;0;0;0;0;0;0;0;0;0
0;0;0;0;0;0;0;0;0;0;0;0;0;0;0
LEVEL;;;;;;;;;;;;;;
4;;;;;;;;;;;;;;
0;0;0;0;0;0;0;0;0;0;0;0;0;0;0
0;0;0;0;0;0;0;0;0;0;0;0;0;0;0
0;0;0;0;0;0;0;0;0;0;0;0;0;0;0
0;0;0;0;8;0;0;0;0;0;0;0;0;0;0
0;0;0;0;0;0;2;0;7;0;0;0;0;0;0
0;0;0;0;0;0;0;0;0;0;0;0;0;0;0
0;0;0;0;0;0;9;0;7;0;0;0;0;0;0
0;0;0;0;0;0;0;0;0;0;0;0;0;0;0
0;0;0;0;0;0;0;0;0;0;0;0;0;0;0
0;0;0;0;0;0;0;0;0;0;0;0;0;0;0
0;0;0;0;0;0;0;0;0;0;0;0;0;0;0
0;0;0;0;0;0;0;0;0;0;0;0;0;0;0
0;0;0;0;0;0;0;0;0;0;0;0;0;0;0
0;0;0;0;0;0;0;0;0;0;0;0;0;0;0
0;0;0;0;0;0;0;0;0;0;0;0;0;0;0
LEVEL;;;;;;;;;;;;;;
5;;;;;;;;;;;;;;
0;0;0;0;0;0;0;0;0;0;0;0;0;0;0
0;0;0;0;0;0;0;0;0;0;0;0;0;0;0
0;0;0;0;0;0;0;0;0;0;0;0;0;0;0
0;0;0;0;0;0;0;0;0;0;0;0;0;0;0
0;0;0;0;0;0;0;0;0;0;0;0;0;0;0
0;0;0;0;0;0;0;0;0;0;0;0;0;0;0
0;0;0;0;0;8;9;4;0;0;0;0;0;0;0
0;0;0;0;0;0;0;4;0;0;0;0;0;0;0
0;0;0;0;0;0;0;0;7;0;0;0;0;0;0
0;0;0;0;0;0;0;0;0;0;0;0;0;0;0
0;0;0;0;0;0;0;0;0;0;0;0;0;0;0
0;0;0;0;0;0;0;0;0;0;0;0;0;0;0
0;0;0;0;0;0;0;0;0;0;0;0;0;0;0
0;0;0;0;0;0;0;0;0;0;0;0;0;0;0
0;0;0;0;0;0;0;0;0;0;0;0;0;0;0
LEVEL;;;;;;;;;;;;;;
6;;;;;;;;;;;;;;
0;0;0;0;0;0;0;0;0;0;0;0;0;0;0
0;0;0;0;0;0;0;0;0;0;0;0;0;0;0
0;0;0;0;0;0;0;0;0;0;0;0;0;0;0
0;0;0;0;0;0;0;0;0;0;0;0;0;0;0
0;0;0;0;0;0;0;0;0;0;0;0;0;0;0
0;0;0;0;0;0;0;0;2;4;4;0;0;0;0
0;0;0;0;0;0;9;8;2;0;0;0;0;0;0
0;0;0;0;0;0;0;0;0;0;0;0;0;0;0
0;0;0;0;0;0;0;0;0;0;0;0;0;0;0
0;0;0;0;0;0;0;0;0;0;0;0;0;0;0
0;0;0;0;0;0;0;0;0;0;0;0;0;0;0
0;0;0;0;0;0;0;0;0;0;0;0;0;0;0
0;0;0;0;0;0;0;0;0;0;0;0;0;0;0
0;0;0;0;0;0;0;0;0;0;0;0;0;0;0
0;0;0;0;0;0;0;0;0;0;0;0;0;0;0
LEVEL;;;;;;;;;;;;;;
7;;;;;;;;;;;;;;
0;0;0;0;0;0;0;0;0;0;0;0;0;0;0
0;0;0;0;0;0;0;0;0;0;0;0;0;0;0
0;0;0;0;0;0;0;0;0;0;0;0;0;0;0
0;0;0;0;0;0;0;0;0;0;0;0;0;0;0
0;0;0;0;0;0;0;0;0;0;0;0;0;0;0
0;0;0;0;0;0;0;0;0;0;0;0;0;0;0
0;0;0;0;0;0;9;2;0;0;2;0;0;0;0
0;0;0;0;0;0;0;0;2;8;0;0;0;0;0
0;0;0;0;0;0;0;0;0;0;0;0;0;0;0
0;0;0;0;0;0;0;0;0;0;0;0;0;0;0
0;0;0;0;0;0;0;0;0;0;0;0;0;0;0
0;0;0;0;0;0;0;0;0;0;0;0;0;0;0
0;0;0;0;0;0;0;0;0;0;0;0;0;0;0
0;0;0;0;0;0;0;0;0;0;0;0;0;0;0
0;0;0;0;0;0;0;0;0;0;0;0;0;0;0
ORIENTATIONS;;;;;;;;;;;;;;
LEVEL;;;;;;;;;;;;;;
0;;;;;;;;;;;;;;
1;2;0;0;1;0;0;0;1;2;0;0;0;0;1
2;1;1;2;2;0;1;2;0;1;1;0;0;1;0
0;1;1;2;0;0;0;2;0;1;2;2;2;1;0
0;1;0;0;0;0;2;0;2;0;1;0;2;2;2
2;0;2;2;1;1;1;1;0;2;2;1;2;0;1
0;2;0;0;1;1;1;0;1;0;0;1;1;0;2
1;1;2;2;1;1;3;1;0;0;0;1;2;1;2
2;1;1;1;2;2;1;1;2;2;1;2;2;1;1
0;2;2;1;1;0;1;0;0;0;0;2;0;2;0
0;0;1;1;1;0;0;0;2;1;2;1;2;2;0
0;2;0;2;0;2;1;1;2;2;1;1;0;0;2
0;0;0;0;0;0;1;0;1;0;2;0;2;1;2
1;0;2;0;0;2;1;1;1;1;0;0;2;0;2
2;0;0;2;2;2;2;0;1;0;0;0;2;0;0
2;1;1;0;1;1;1;0;1;1;0;0;0;0;2
LEVEL;;;;;;;;;;;;;;
1;;;;;;;;;;;;;;
0;1;0;0;0;0;2;2;1;0;1;2;0;2;1
2;1;2;1;2;0;0;0;1;2;0;0;1;2;0
2;0;2;1;1;1;0;1;2;0;0;0;0;2;2
2;1;2;1;0;2;1;2;0;2;0;1;2;0;2
2;1;0;2;0;2;0;2;0;0;2;2;0;2;2
2;2;0;2;2;1;1;1;1;1;1;2;2;1;0
2;0;1;2;1;1;3;1;2;2;0;2;2;0;0
0;1;2;0;1;0;0;1;0;0;0;2;0;0;2
0;1;1;1;2;2;2;2;2;0;1;0;2;2;1
1;0;0;2;2;0;1;0;1;1;0;1;1;1;0
2;0;2;2;2;0;2;0;2;2;1;0;2;1;0
1;0;0;0;0;0;2;2;1;1;2;2;2;1;0
0;2;0;1;0;0;2;0;2;2;2;2;2;1;2
1;1;2;0;2;1;2;0;1;1;1;2;0;0;0
1;1;2;2;1;1;2;2;0;0;1;0;2;1;1
LEVEL;;;;;;;;;;;;;;
2;;;;;;;;;;;;;;
1;2;0;1;0;1;0;1;0;1;0;2;2;2;1
0;0;0;0;1;2;1;2;2;0;1;1;2;1;1
1;0;1;1;0;1;2;1;1;2;0;2;1;1;0
0;1;1;1;0;0;1;2;0;0;0;2;1;0;2
1;0;0;0;0;0;1;1;0;0;2;2;1;0;0
0;0;2;1;1;0;2;2;0;0;2;0;2;2;0
1;1;1;0;0;0;3;1;0;0;0;0;0;2;2
0;1;0;1;2;1;0;0;0;0;1;1;1;1;2
2;0;0;0;1;1;2;1;0;0;2;2;1;1;1
0;1;0;1;2;2;2;0;0;0;0;2;2;2;0
2;2;2;1;2;2;0;0;1;0;2;0;0;0;2
2;1;2;0;2;0;1;2;2;0;2;0;0;2;0
1;0;2;2;1;2;0;2;0;1;2;2;2;1;2
1;0;0;1;0;0;0;2;2;1;0;2;1;1;0
2;2;0;1;2;0;0;2;0;1;0;2;0;1;2
LEVEL;;;;;;;;;;;;;;
3;;;;;;;;;;;;;;
2;1;0;1;1;1;0;0;0;2;0;1;2;2;2
2;1;0;2;0;1;1;1;2;1;0;0;1;1;0
2;2;1;1;0;2;1;0;0;2;0;1;2;0;2
2;2;0;1;2;2;2;1;1;0;2;2;2;1;0
2;0;1;1;0;2;2;1;2;2;0;1;2;2;1
2;1;0;2;1;0;1;1;2;0;2;0;2;1;1
1;1;2;1;2;1;3;1;1;0;1;2;0;2;1
0;2;2;2;1;1;1;1;0;0;1;0;2;2;1
1;0;0;1;2;2;1;2;1;0;2;1;0;2;1
2;2;2;2;0;2;1;0;1;0;1;0;2;1;2
1;1;1;2;2;1;1;1;0;2;1;0;1;2;0
0;0;0;1;0;1;0;2;0;2;1;2;1;2;0
0;0;2;0;1;0;2;1;1;2;0;1;1;0;2
2;1;0;1;1;1;1;2;0;1;2;0;0;0;1
0;0;1;2;2;2;1;2;0;0;1;1;0;0;0
LEVEL;;;;;;;;;;;;;;
4;;;;;;;;;;;;;;
1;1;1;1;0;2;2;2;0;0;0;1;1;1;1
2;1;0;1;1;0;1;1;1;1;1;2;0;2;1
0;1;0;1;0;2;2;1;0;0;1;1;0;1;2
1;1;1;0;0;2;0;2;0;2;2;1;2;0;1
2;0;2;1;1;2;3;1;0;2;0;1;2;2;0
2;1;2;2;0;2;1;2;0;2;2;0;2;2;2
2;2;0;2;1;0;3;0;0;1;1;0;0;0;0
1;2;2;1;1;1;1;2;1;0;2;1;2;0;1
1;1;2;1;2;0;0;1;2;2;0;1;1;2;1
2;1;1;1;0;1;2;1;2;0;2;2;2;2;0
1;0;0;2;1;1;0;1;0;0;2;0;2;0;2
0;1;2;0;0;0;0;0;2;2;1;1;2;2;1
2;2;1;1;0;0;0;2;0;2;2;1;1;1;2
0;0;1;2;2;2;0;0;1;1;1;1;1;0;0
1;1;2;1;1;1;1;2;0;0;1;1;1;0;1
LEVEL;;;;;;;;;;;;;;
5;;;;;;;;;;;;;;
0;2;1;1;2;1;1;2;1;2;2;0;0;0;2
2;2;0;1;1;0;2;1;0;0;1;1;0;1;2
2;0;0;1;1;1;1;1;1;2;2;1;1;2;1
0;1;1;1;2;0;1;2;0;1;1;0;0;1;2
2;2;0;2;1;2;1;0;0;0;0;1;0;0;1
2;1;2;2;1;2;0;2;1;1;1;2;2;0;2
2;1;1;0;0;0;3;1;1;0;2;0;1;2;2
1;0;2;0;0;1;1;1;0;0;0;1;2;0;2
0;2;0;0;2;1;2;0;0;1;1;1;0;2;2
2;2;1;0;1;0;2;0;1;0;1;0;0;2;0
1;1;1;2;0;2;2;0;1;2;2;1;0;1;2
0;0;1;0;1;2;2;0;0;0;2;0;0;1;2
2;2;0;0;0;0;2;0;0;0;1;0;2;0;0
0;0;2;0;1;1;2;1;0;0;1;2;0;1;1
0;1;2;1;2;2;0;2;1;1;1;0;1;0;1
LEVEL;;;;;;;;;;;;;;
6;;;;;;;;;;;;;;
2;2;0;0;1;1;1;1;1;0;1;1;2;2;0
1;2;0;2;2;0;2;2;0;1;0;0;2;1;0
2;1;2;1;0;2;0;0;2;2;1;1;1;1;2
1;2;1;1;2;2;2;0;2;0;2;2;0;1;0
1;1;2;2;2;1;2;0;1;2;1;0;2;2;1
1;0;0;1;0;0;1;1;1;0;0;0;0;1;2
1;0;2;2;1;0;3;0;3;2;0;2;0;2;0
1;0;2;2;0;0;0;2;2;1;0;1;2;0;1
2;1;0;2;0;2;1;2;0;1;2;1;1;1;1
0;0;2;1;1;1;1;1;0;1;1;0;1;0;0
1;1;2;1;0;2;1;0;1;0;2;1;1;0;0
1;1;0;0;0;1;2;1;2;0;2;0;1;2;1
0;2;1;2;0;0;0;1;0;2;1;2;2;0;0
2;0;1;1;1;1;1;1;0;1;1;2;1;1;0
0;1;1;2;0;0;2;1;0;2;1;0;1;0;1
LEVEL;;;;;;;;;;;;;;
7;;;;;;;;;;;;;;
0;0;0;2;1;0;1;0;1;1;2;2;0;1;2
1;1;1;2;1;1;0;0;0;2;2;2;0;2;2
0;2;0;2;0;2;2;0;0;2;0;0;1;1;0
1;0;0;1;2;1;0;0;0;2;0;1;1;0;1
1;1;0;2;1;2;0;2;1;2;1;0;0;2;1
1;1;0;2;1;1;1;0;2;0;1;1;2;2;2
1;0;2;1;0;1;3;1;1;0;1;2;1;2;2
2;0;1;0;1;2;0;1;3;0;0;1;2;1;0
2;1;1;2;1;0;2;2;0;1;2;1;1;1;0
0;2;1;0;1;2;2;0;0;0;0;2;0;1;0
2;0;0;1;2;2;2;1;0;2;2;2;0;2;2
2;2;0;1;1;1;0;0;0;0;1;0;0;0;1
2;1;0;2;1;2;2;0;1;1;2;1;1;2;1
0;0;0;2;0;2;2;1;2;1;2;0;1;1;1
0;0;1;0;2;2;1;0;0;0;0;0;0;2;0
PLACED CARDS;;;;;;;;;;;;;;
LEVEL; CARD;;;;;;;;;;;;;
0; Move1(Clone);;;;;;;;;;;;;
0; Move2(Clone);;;;;;;;;;;;;
0; UTurn(Clone);;;;;;;;;;;;;
0; Move2(Clone);;;;;;;;;;;;;
0; Move3(Clone);;;;;;;;;;;;;
1; Move1(Clone);;;;;;;;;;;;;
1; RLeft(Clone);;;;;;;;;;;;;
1; RRight(Clone);;;;;;;;;;;;;
1; Move3(Clone);;;;;;;;;;;;;
1; Move1(Clone);;;;;;;;;;;;;
2; Move1(Clone);;;;;;;;;;;;;
2; Move2(Clone);;;;;;;;;;;;;
2; RRight(Clone);;;;;;;;;;;;;
2; Move2(Clone);;;;;;;;;;;;;
2; Move3(Clone);;;;;;;;;;;;;
3; Move1(Clone);;;;;;;;;;;;;
3; Move3(Clone);;;;;;;;;;;;;
3; RRight(Clone);;;;;;;;;;;;;
3; UTurn(Clone);;;;;;;;;;;;;
3; Move3(Clone);;;;;;;;;;;;;
4; Move1(Clone);;;;;;;;;;;;;
4; Move2(Clone);;;;;;;;;;;;;
4; Move1(Clone);;;;;;;;;;;;;
4; Move2(Clone);;;;;;;;;;;;;
4; Move2(Clone);;;;;;;;;;;;;
5; Move1(Clone);;;;;;;;;;;;;
5; Move2(Clone);;;;;;;;;;;;;
5; Move1(Clone);;;;;;;;;;;;;
5; RLeft(Clone);;;;;;;;;;;;;
5; Move3(Clone);;;;;;;;;;;;;
6; Move1(Clone);;;;;;;;;;;;;
6; Move2(Clone);;;;;;;;;;;;;
6; UTurn(Clone);;;;;;;;;;;;;
6; Move1(Clone);;;;;;;;;;;;;
6; Move3(Clone);;;;;;;;;;;;;
7; Move1(Clone);;;;;;;;;;;;;
7; Move1(Clone);;;;;;;;;;;;;
7; Move2(Clone);;;;;;;;;;;;;
7; UTurn(Clone);;;;;;;;;;;;;
7; Move1(Clone);;;;;;;;;;;;;
CORRECT COMBINATIONS;;;;;;;;;;;;;;
LEVEL; COMBINATION;;;;;;;;;;;;;
0; C_M1-F_F1;;;;;;;;;;;;;
0; C_M1-F_F1;;;;;;;;;;;;;
0; C_M2-F_F1;;;;;;;;;;;;;
0; C_UT;;;;;;;;;;;;;
0; C_M1-F_G;;;;;;;;;;;;;
1; C_M1-F_F1;;;;;;;;;;;;;
1; C_M1-F_F1;;;;;;;;;;;;;
1; C_M2-F_F1;;;;;;;;;;;;;
1; C_UT;;;;;;;;;;;;;
1; C_M1-F_G;;;;;;;;;;;;;
2; C_M1-F_F1;;;;;;;;;;;;;
2; C_M1-F_F1;;;;;;;;;;;;;
2; C_M2-F_F1;;;;;;;;;;;;;
2; C_UT;;;;;;;;;;;;;
2; C_M1-F_G;;;;;;;;;;;;;
3; C_M1-F_F1;;;;;;;;;;;;;
3; C_M1-F_F1;;;;;;;;;;;;;
3; C_M2-F_F1;;;;;;;;;;;;;
3; C_UT;;;;;;;;;;;;;
3; C_M1-F_G;;;;;;;;;;;;;
4; C_M1-F_F1;;;;;;;;;;;;;
4; C_M1-F_F1;;;;;;;;;;;;;
4; C_M2-F_F1;;;;;;;;;;;;;
4; C_UT;;;;;;;;;;;;;
4; C_M1-F_G;;;;;;;;;;;;;
5; C_M1-F_F1;;;;;;;;;;;;;
5; C_M1-F_F1;;;;;;;;;;;;;
5; C_M2-F_F1;;;;;;;;;;;;;
5; C_UT;;;;;;;;;;;;;
5; C_M1-F_G;;;;;;;;;;;;;
6; C_M1-F_F1;;;;;;;;;;;;;
6; C_M1-F_F1;;;;;;;;;;;;;
6; C_M2-F_F1;;;;;;;;;;;;;
6; C_UT;;;;;;;;;;;;;
6; C_M1-F_G;;;;;;;;;;;;;
7; C_M1-F_F1;;;;;;;;;;;;;
7; C_M1-F_F1;;;;;;;;;;;;;
7; C_M2-F_F1;;;;;;;;;;;;;
7; C_UT;;;;;;;;;;;;;
7; C_M1-F_G;;;;;;;;;;;;;
NUMBER OF CORRECT PLACED CARDS;;;;;;;;;;;;;;
LEVEL; CORRECT;;;;;;;;;;;;;
0;5;;;;;;;;;;;;;
1;5;;;;;;;;;;;;;
2;0;;;;;;;;;;;;;
3;5;;;;;;;;;;;;;
4;1;;;;;;;;;;;;;
5;1;;;;;;;;;;;;;
6;0;;;;;;;;;;;;;
7;5;;;;;;;;;;;;;
TIME BETWEEN CARDS;;;;;;;;;;;;;;
LEVEL; CARD TIME;;;;;;;;;;;;;
0;276,9866;;;;;;;;;;;;;
0;28,69614;;;;;;;;;;;;;
0;10,41055;;;;;;;;;;;;;
0;8,02005;;;;;;;;;;;;;
0;7,561096;;;;;;;;;;;;;
1;27,0867;;;;;;;;;;;;;
1;52,10977;;;;;;;;;;;;;
1;20,96756;;;;;;;;;;;;;
1;4,356018;;;;;;;;;;;;;
1;2,044128;;;;;;;;;;;;;
2;37,02975;;;;;;;;;;;;;
2;6,512177;;;;;;;;;;;;;
2;5,451172;;;;;;;;;;;;;
2;2,681244;;;;;;;;;;;;;
2;2,21109;;;;;;;;;;;;;
3;14,76703;;;;;;;;;;;;;
3;31,68668;;;;;;;;;;;;;
3;42,88477;;;;;;;;;;;;;
3;3,406799;;;;;;;;;;;;;
3;2,680054;;;;;;;;;;;;;
4;49,26038;;;;;;;;;;;;;
4;6,937256;;;;;;;;;;;;;
4;2,512817;;;;;;;;;;;;;
4;2,769714;;;;;;;;;;;;;
4;1,519531;;;;;;;;;;;;;
5;17,0423;;;;;;;;;;;;;
5;8,077271;;;;;;;;;;;;;
5;5,152466;;;;;;;;;;;;;
5;2,925049;;;;;;;;;;;;;
5;2,414429;;;;;;;;;;;;;
6;10,94995;;;;;;;;;;;;;
6;14,74121;;;;;;;;;;;;;
6;4,681152;;;;;;;;;;;;;
6;1,618103;;;;;;;;;;;;;
6;1,453796;;;;;;;;;;;;;
7;13,91656;;;;;;;;;;;;;
7;2,94989;;;;;;;;;;;;;
7;19,97223;;;;;;;;;;;;;
7;3,103149;;;;;;;;;;;;;
7;2,191345;;;;;;;;;;;;;
LEVEL TIMES;;;;;;;;;;;;;;
LEVEL; ELAPSED TIME;;;;;;;;;;;;;
0;331,6744;;;;;;;;;;;;;
1;438,2386;;;;;;;;;;;;;
2;492,1241;;;;;;;;;;;;;
3;587,5494;;;;;;;;;;;;;
4;650,5491;;;;;;;;;;;;;
5;686,1606;;;;;;;;;;;;;
6;719,6048;;;;;;;;;;;;;
7;761,738;;;;;;;;;;;;;
TOTAL TIME;;;;;;;;;;;;;;
0CARDS GRABBED;;;;;;;;;;;;;;
LEVEL; ELAPSED TIME; CARD;;;;;;;;;;;;
1;275,1432; Move1;;;;;;;;;;;;
1;276,9866; Move1;;;;;;;;;;;;
1;304,61; Move2;;;;;;;;;;;;
1;305,6827; Move2;;;;;;;;;;;;
1;315,1216; UTurn;;;;;;;;;;;;
1;316,0933; UTurn;;;;;;;;;;;;
1;323,1419; Move2;;;;;;;;;;;;
1;324,1133; Move2;;;;;;;;;;;;
1;330,5472; Move3;;;;;;;;;;;;
1;331,6744; Move3;;;;;;;;;;;;
2;357,7454; Move1;;;;;;;;;;;;
2;358,7611; Move1;;;;;;;;;;;;
2;409,5638; RLeft;;;;;;;;;;;;
2;410,8709; RLeft;;;;;;;;;;;;
2;414,6806; Move3;;;;;;;;;;;;
2;422,3209; Move1;;;;;;;;;;;;
2;430,6315; RRight;;;;;;;;;;;;
2;431,8385; RRight;;;;;;;;;;;;
2;435,2224; Move3;;;;;;;;;;;;
2;436,1945; Move3;;;;;;;;;;;;
2;437,3226; Move1;;;;;;;;;;;;
2;438,2386; Move1;;;;;;;;;;;;
3;474,3189; Move1;;;;;;;;;;;;
3;475,2684; Move1;;;;;;;;;;;;
3;480,9765; Move2;;;;;;;;;;;;
3;481,7805; Move2;;;;;;;;;;;;
3;486,4157; RRight;;;;;;;;;;;;
3;487,2317; RRight;;;;;;;;;;;;
3;489,1076; Move2;;;;;;;;;;;;
3;489,913; Move2;;;;;;;;;;;;
3;491,1969; Move3;;;;;;;;;;;;
3;492,1241; Move3;;;;;;;;;;;;
4;505,7285; Move1;;;;;;;;;;;;
4;506,8911; Move1;;;;;;;;;;;;
4;537,5976; Move3;;;;;;;;;;;;
4;538,5778; Move3;;;;;;;;;;;;
4;580,245; RRight;;;;;;;;;;;;
4;581,4625; RRight;;;;;;;;;;;;
4;583,6744; UTurn;;;;;;;;;;;;
4;584,8693; UTurn;;;;;;;;;;;;
4;586,5557; Move3;;;;;;;;;;;;
4;587,5494; Move3;;;;;;;;;;;;
5;635,6366; Move1;;;;;;;;;;;;
5;636,8098; Move1;;;;;;;;;;;;
5;642,2272; Move2;;;;;;;;;;;;
5;643,747; Move2;;;;;;;;;;;;
5;645,087; Move1;;;;;;;;;;;;
5;646,2598; Move1;;;;;;;;;;;;
5;648,1473; Move2;;;;;;;;;;;;
5;649,0295; Move2;;;;;;;;;;;;
5;649,9457; Move2;;;;;;;;;;;;
5;650,5491; Move2;;;;;;;;;;;;
6;664,132; Move3;;;;;;;;;;;;
6;666,5989; Move1;;;;;;;;;;;;
6;667,5914; Move1;;;;;;;;;;;;
6;674,7762; Move2;;;;;;;;;;;;
6;675,6686; Move2;;;;;;;;;;;;
6;679,9329; Move1;;;;;;;;;;;;
6;680,8211; Move1;;;;;;;;;;;;
6;682,9067; RLeft;;;;;;;;;;;;
6;683,7462; RLeft;;;;;;;;;;;;
6;685,1537; Move3;;;;;;;;;;;;
6;686,1606; Move3;;;;;;;;;;;;
7;696,272; Move1;;;;;;;;;;;;
7;697,1105; Move1;;;;;;;;;;;;
7;711,2044; Move2;;;;;;;;;;;;
7;711,8517; Move2;;;;;;;;;;;;
7;714,3205; UTurn;;;;;;;;;;;;
7;715,8177; UTurn;;;;;;;;;;;;
7;716,5329; UTurn;;;;;;;;;;;;
7;717,4037; Move1;;;;;;;;;;;;
7;718,151; Move1;;;;;;;;;;;;
7;718,9677; Move3;;;;;;;;;;;;
7;719,6048; Move3;;;;;;;;;;;;
8;732,7626; Move1;;;;;;;;;;;;
8;733,5214; Move1;;;;;;;;;;;;
8;735,4208; Move1;;;;;;;;;;;;
8;736,4713; Move1;;;;;;;;;;;;
8;749,9307; UTurn;;;;;;;;;;;;
8;752,8012; Move2;;;;;;;;;;;;
8;756,4435; Move2;;;;;;;;;;;;
8;758,387; UTurn;;;;;;;;;;;;
8;759,5466; UTurn;;;;;;;;;;;;
8;761,0342; Move1;;;;;;;;;;;;
8;761,738; Move1;;;;;;;;;;;;
CARDS DROPPED;;;;;;;;;;;;;;
LEVEL; ELAPSED TIME; CARD;;;;;;;;;;;;
1;276,9756; Move1;;;;;;;;;;;;
1;277,1983; Move1;;;;;;;;;;;;
1;305,6827; Move2;;;;;;;;;;;;
1;305,8943; Move2;;;;;;;;;;;;
1;316,0933; UTurn;;;;;;;;;;;;
1;316,3051; UTurn;;;;;;;;;;;;
1;324,1133; Move2;;;;;;;;;;;;
1;324,3253; Move2;;;;;;;;;;;;
1;331,6744; Move3;;;;;;;;;;;;
1;331,6744; Move3;;;;;;;;;;;;
2;358,7504; Move1;;;;;;;;;;;;
2;358,9737; Move1;;;;;;;;;;;;
2;410,8709; RLeft;;;;;;;;;;;;
2;411,0896; RLeft;;;;;;;;;;;;
2;416,7807; Move3;;;;;;;;;;;;
2;425,672; Move1;;;;;;;;;;;;
2;431,8385; RRight;;;;;;;;;;;;
2;432,0505; RRight;;;;;;;;;;;;
2;436,1945; Move3;;;;;;;;;;;;
2;436,4131; Move3;;;;;;;;;;;;
2;438,2386; Move1;;;;;;;;;;;;
2;438,2386; Move1;;;;;;;;;;;;
3;475,2567; Move1;;;;;;;;;;;;
3;475,4813; Move1;;;;;;;;;;;;
3;481,7805; Move2;;;;;;;;;;;;
3;481,993; Move2;;;;;;;;;;;;
3;487,2317; RRight;;;;;;;;;;;;
3;487,451; RRight;;;;;;;;;;;;
3;489,913; Move2;;;;;;;;;;;;
3;490,1255; Move2;;;;;;;;;;;;
3;492,1241; Move3;;;;;;;;;;;;
3;492,1241; Move3;;;;;;;;;;;;
4;506,88; Move1;;;;;;;;;;;;
4;507,1032; Move1;;;;;;;;;;;;
4;538,522; Move3;;;;;;;;;;;;
4;538,7926; Move3;;;;;;;;;;;;
4;581,4625; RRight;;;;;;;;;;;;
4;581,6751; RRight;;;;;;;;;;;;
4;584,8693; UTurn;;;;;;;;;;;;
4;585,0821; UTurn;;;;;;;;;;;;
4;587,5494; Move3;;;;;;;;;;;;
4;587,5494; Move3;;;;;;;;;;;;
5;636,7982; Move1;;;;;;;;;;;;
5;637,022; Move1;;;;;;;;;;;;
5;643,747; Move2;;;;;;;;;;;;
5;643,9662; Move2;;;;;;;;;;;;
5;646,2598; Move1;;;;;;;;;;;;
5;646,4723; Move1;;;;;;;;;;;;
5;649,0295; Move2;;;;;;;;;;;;
5;649,2519; Move2;;;;;;;;;;;;
5;650,5043; Move2;;;;;;;;;;;;
5;650,5491; Move2;;;;;;;;;;;;
6;664,976; Move3;;;;;;;;;;;;
6;667,5803; Move1;;;;;;;;;;;;
6;667,8098; Move1;;;;;;;;;;;;
6;675,6686; Move2;;;;;;;;;;;;
6;675,8812; Move2;;;;;;;;;;;;
6;680,8211; Move1;;;;;;;;;;;;
6;681,0617; Move1;;;;;;;;;;;;
6;683,7462; RLeft;;;;;;;;;;;;
6;683,9651; RLeft;;;;;;;;;;;;
6;686,1028; Move3;;;;;;;;;;;;
6;686,1606; Move3;;;;;;;;;;;;
7;697,0999; Move1;;;;;;;;;;;;
7;697,3299; Move1;;;;;;;;;;;;
7;711,8517; Move2;;;;;;;;;;;;
7;712,064; Move2;;;;;;;;;;;;
7;714,5663; UTurn;;;;;;;;;;;;
7;716,5329; UTurn;;;;;;;;;;;;
7;716,7448; UTurn;;;;;;;;;;;;
7;718,151; Move1;;;;;;;;;;;;
7;718,3643; Move1;;;;;;;;;;;;
7;719,6048; Move3;;;;;;;;;;;;
7;719,6048; Move3;;;;;;;;;;;;
8;733,5107; Move1;;;;;;;;;;;;
8;733,7337; Move1;;;;;;;;;;;;
8;736,4713; Move1;;;;;;;;;;;;
8;736,6839; Move1;;;;;;;;;;;;
8;751,3495; UTurn;;;;;;;;;;;;
8;756,4435; Move2;;;;;;;;;;;;
8;756,6547; Move2;;;;;;;;;;;;
8;759,5466; UTurn;;;;;;;;;;;;
8;759,7606; UTurn;;;;;;;;;;;;
8;761,738; Move1;;;;;;;;;;;;
8;761,738; Move1;;;;;;;;;;;;
