MENTAL EFFORT
LEVEL; VALUE
1; 5
2; -8
3; 8
4; -6
5; 0
6; 0
7; -7
8; 9
COMPLEXITY
LEVEL; VALUE
1; 5
2; -8
3; 9
4; 0
5; 0
6; 0
7; -7
8; 10

COMBINATION DIFFICULT
LEVEL; CARD; FIELD; VALUE
1; PCMove1; FieldDoubleCon; 2
1; PCMove2; FieldStandard; 7
1; PCUT; FieldStandard; 8
1; PCMove2; FieldRR; 2
1; PCMove3; Goal; 2
2; PCMove1; FieldDoubleCon; 1
2; PCRL; FieldStandard; 1
2; PCRR; FieldStandard; 1
2; PCMove3; FieldStandard; 1
2; PCMove1; Goal; 1
4; PCMove3; FieldStandard; 2
4; PCMove1; FieldSimpleCon; 2
4; PCRR; FieldStandard; 7
4; PCUT; FieldStandard; 7
4; PCMove3; Goal; 2
5; PCMove1; FieldStandard; 5
6; PCMove1; FieldDoubleCon; 5
8; PCMove1; FieldSimpleCon; 2
8; PCMove1; FieldSimpleCon; 8
8; PCMove2; FieldSimpleCon; 9
8; PCUT; FieldStandard; 9
8; PCMove1; Goal; 3
FINAL CARD DIFFICULTIES
LEVEL; VALUE
1; 1
2; 1
3; 10
4; 10
5; 10
6; 10
7; 10
FINAL FIELD DIFFICULTIES
LEVEL; VALUE
1; 5
2; 9
3; 10
4; 10
