FIELD MATRICES;;;;;;;;;;;;;;
LEVEL;;;;;;;;;;;;;;
0;;;;;;;;;;;;;;
0;0;0;0;0;0;0;0;0;0;0;0;0;0;0
0;0;0;0;0;0;0;0;0;0;0;0;0;0;0
0;0;0;0;0;0;0;0;0;0;0;0;0;0;0
0;0;0;0;0;0;0;0;0;0;0;0;0;0;0
0;0;0;0;0;0;0;0;0;0;0;0;0;0;0
0;0;0;0;2;0;0;0;0;0;0;0;0;0;0
0;0;0;0;0;0;9;2;0;0;0;0;0;0;0
0;0;0;0;0;0;0;0;0;0;0;0;0;0;0
0;0;0;8;0;0;0;0;0;0;0;0;0;0;0
0;0;0;0;0;0;0;0;0;0;0;0;0;0;0
0;0;0;0;0;0;0;0;0;0;0;0;0;0;0
0;0;0;0;0;0;0;0;0;0;0;0;0;0;0
0;0;0;0;0;0;0;0;0;0;0;0;0;0;0
0;0;0;0;0;0;0;0;0;0;0;0;0;0;0
0;0;0;0;0;0;0;0;0;0;0;0;0;0;0
LEVEL;;;;;;;;;;;;;;
1;;;;;;;;;;;;;;
0;0;0;0;0;0;0;0;0;0;0;0;0;0;0
0;0;0;0;0;0;0;0;0;0;0;0;0;0;0
0;0;0;0;0;0;0;0;0;0;0;0;0;0;0
0;0;0;0;0;0;0;0;0;0;0;0;0;0;0
0;0;0;0;0;0;0;0;0;0;0;0;0;0;0
0;0;0;0;0;0;0;0;0;0;0;0;0;0;0
0;0;0;0;0;0;9;0;2;0;0;0;0;0;0
0;0;0;0;0;0;0;0;8;0;0;0;0;0;0
0;0;0;0;0;0;0;0;0;0;0;0;0;0;0
0;0;0;0;0;0;0;0;0;0;0;0;0;0;0
0;0;0;0;0;0;0;0;0;0;0;0;0;0;0
0;0;0;0;0;0;0;0;0;0;0;0;0;0;0
0;0;0;0;0;0;0;0;0;0;0;0;0;0;0
0;0;0;0;0;0;0;0;0;0;0;0;0;0;0
0;0;0;0;0;0;0;0;0;0;0;0;0;0;0
LEVEL;;;;;;;;;;;;;;
2;;;;;;;;;;;;;;
0;0;0;0;0;0;0;0;0;0;0;0;0;0;0
0;0;0;0;0;0;0;0;0;0;0;0;0;0;0
0;0;0;0;0;0;0;0;0;0;0;0;0;0;0
0;0;0;0;0;0;0;0;0;0;0;0;0;0;0
0;0;0;0;0;0;0;0;0;0;0;0;0;0;0
0;0;0;0;0;0;0;0;0;0;0;0;0;0;0
0;0;0;0;0;0;9;0;0;2;0;0;0;0;0
0;0;0;0;0;0;0;0;8;0;0;0;0;0;0
0;0;0;0;0;0;0;0;0;0;0;0;0;0;0
0;0;0;0;0;0;0;0;0;0;0;0;0;0;0
0;0;0;0;0;0;0;0;0;0;0;0;0;0;0
0;0;0;0;0;0;0;0;0;0;0;0;0;0;0
0;0;0;0;0;0;0;0;0;0;0;0;0;0;0
0;0;0;0;0;0;0;0;0;0;0;0;0;0;0
0;0;0;0;0;0;0;0;0;0;0;0;0;0;0
LEVEL;;;;;;;;;;;;;;
3;;;;;;;;;;;;;;
0;0;0;0;0;0;0;0;0;0;0;0;0;0;0
0;0;0;0;0;0;0;0;0;0;0;0;0;0;0
0;0;0;0;0;0;0;0;0;0;0;0;0;0;0
0;0;0;0;0;0;0;0;0;0;0;0;0;0;0
0;0;0;0;0;0;0;0;0;0;8;0;0;0;0
0;0;0;0;0;0;0;0;0;0;0;0;0;0;0
0;0;0;0;0;0;9;2;0;0;7;0;0;0;0
0;0;0;0;0;0;0;0;0;0;0;0;0;0;0
0;0;0;0;0;0;0;0;0;0;0;0;0;0;0
0;0;0;0;0;0;0;0;0;0;0;0;0;0;0
0;0;0;0;0;0;0;0;0;0;0;0;0;0;0
0;0;0;0;0;0;0;0;0;0;0;0;0;0;0
0;0;0;0;0;0;0;0;0;0;0;0;0;0;0
0;0;0;0;0;0;0;0;0;0;0;0;0;0;0
0;0;0;0;0;0;0;0;0;0;0;0;0;0;0
LEVEL;;;;;;;;;;;;;;
4;;;;;;;;;;;;;;
0;0;0;0;0;0;0;0;0;0;0;0;0;0;0
0;0;0;0;0;0;0;0;0;0;0;0;0;0;0
0;0;0;0;0;0;0;0;0;0;0;0;0;0;0
0;0;0;0;0;0;0;0;0;0;0;0;0;0;0
0;0;0;0;0;0;0;0;0;0;0;0;0;0;0
0;0;0;0;0;0;0;0;8;0;0;0;0;0;0
0;0;0;0;0;0;9;0;4;0;0;0;0;0;0
0;0;0;0;0;0;0;0;4;0;0;0;0;0;0
0;0;0;0;0;0;0;0;0;0;0;0;0;0;0
0;0;0;0;0;0;0;0;0;0;0;0;0;0;0
0;0;0;0;0;0;0;0;0;0;0;0;0;0;0
0;0;0;0;0;0;0;0;0;0;0;0;0;0;0
0;0;0;0;0;0;0;0;0;0;0;0;0;0;0
0;0;0;0;0;0;0;0;0;0;0;0;0;0;0
0;0;0;0;0;0;0;0;0;0;0;0;0;0;0
LEVEL;;;;;;;;;;;;;;
5;;;;;;;;;;;;;;
0;0;0;0;0;0;0;0;0;0;0;0;0;0;0
0;0;0;0;0;0;0;0;0;0;0;0;0;0;0
0;0;0;0;0;0;0;0;0;0;0;0;0;0;0
0;0;0;0;0;0;0;0;0;0;0;0;0;0;0
0;0;0;0;0;0;0;0;0;0;0;0;0;0;0
0;0;0;0;0;0;0;0;2;0;0;0;0;0;0
0;0;0;0;0;0;9;2;0;0;0;0;0;0;0
0;0;0;0;0;0;0;0;8;0;0;0;0;0;0
0;0;0;0;0;0;0;0;0;0;0;0;0;0;0
0;0;0;0;0;0;0;0;0;0;0;0;0;0;0
0;0;0;0;0;0;0;0;0;0;0;0;0;0;0
0;0;0;0;0;0;0;0;0;0;0;0;0;0;0
0;0;0;0;0;0;0;0;0;0;0;0;0;0;0
0;0;0;0;0;0;0;0;0;0;0;0;0;0;0
0;0;0;0;0;0;0;0;0;0;0;0;0;0;0
LEVEL;;;;;;;;;;;;;;
6;;;;;;;;;;;;;;
0;0;0;0;0;0;0;0;0;0;0;0;0;0;0
0;0;0;0;0;0;0;0;0;0;0;0;0;0;0
0;0;0;0;0;0;0;0;0;0;0;0;0;0;0
0;0;0;0;0;0;0;0;0;0;0;0;0;0;0
0;0;0;0;0;0;0;6;6;0;0;0;0;0;0
0;0;0;0;0;0;0;0;0;0;0;0;0;0;0
0;0;0;0;0;0;9;0;8;0;0;0;0;0;0
0;0;0;0;0;0;0;0;0;0;0;0;0;0;0
0;0;0;0;0;0;0;0;0;0;0;0;0;0;0
0;0;0;0;0;0;0;0;0;0;0;0;0;0;0
0;0;0;0;0;0;0;0;0;0;0;0;0;0;0
0;0;0;0;0;0;0;0;0;0;0;0;0;0;0
0;0;0;0;0;0;0;0;0;0;0;0;0;0;0
0;0;0;0;0;0;0;0;0;0;0;0;0;0;0
0;0;0;0;0;0;0;0;0;0;0;0;0;0;0
LEVEL;;;;;;;;;;;;;;
7;;;;;;;;;;;;;;
0;0;0;0;0;0;0;0;0;0;0;0;0;0;0
0;0;0;0;0;0;0;0;0;0;0;0;0;0;0
0;0;0;0;0;0;0;0;0;0;0;0;0;0;0
0;0;0;0;0;0;0;0;0;0;0;0;0;0;0
0;0;0;0;0;0;0;0;0;0;0;0;0;0;0
0;0;0;0;0;0;8;6;0;0;0;0;0;0;0
0;0;0;0;0;0;9;0;0;0;0;0;0;0;0
0;0;0;0;0;0;0;0;0;0;0;0;0;0;0
0;0;0;0;0;0;0;0;0;0;0;0;0;0;0
0;0;0;0;0;0;0;0;0;0;0;0;0;0;0
0;0;0;0;0;0;0;0;0;0;0;0;0;0;0
0;0;0;0;0;0;0;0;0;0;0;0;0;0;0
0;0;0;0;0;0;0;0;0;0;0;0;0;0;0
0;0;0;0;0;0;0;0;0;0;0;0;0;0;0
0;0;0;0;0;0;0;0;0;0;0;0;0;0;0
ORIENTATIONS;;;;;;;;;;;;;;
LEVEL;;;;;;;;;;;;;;
0;;;;;;;;;;;;;;
2;2;0;2;0;1;1;2;0;0;2;2;0;0;2
1;1;1;1;2;1;0;1;0;1;2;1;1;0;0
2;2;2;0;0;1;2;1;1;1;2;0;1;2;0
1;2;0;2;1;0;1;2;0;0;2;2;2;1;1
2;1;1;1;2;0;0;2;1;2;0;2;1;2;0
0;1;1;2;2;1;1;1;2;1;0;2;2;1;1
2;1;2;0;1;0;3;3;0;2;0;1;1;2;2
2;1;2;2;0;1;1;2;1;1;1;0;1;0;1
0;1;1;0;2;1;1;0;0;1;1;2;0;1;1
1;1;2;1;2;1;2;1;2;2;0;2;0;0;1
2;0;2;1;2;1;1;0;1;0;0;1;1;0;1
2;0;1;2;0;0;0;2;1;2;1;2;0;2;0
0;0;2;1;2;2;1;0;2;1;1;0;2;0;2
1;2;0;1;1;1;0;1;2;2;1;1;0;2;2
2;2;1;0;2;0;0;2;0;0;1;2;2;2;0
LEVEL;;;;;;;;;;;;;;
1;;;;;;;;;;;;;;
0;2;0;0;1;2;1;2;1;2;1;0;0;2;1
2;1;1;1;0;0;2;1;2;1;2;0;2;1;1
1;1;2;0;2;2;1;2;1;0;1;2;1;0;1
1;0;1;1;1;2;2;2;0;2;0;0;1;0;0
2;0;2;1;1;0;0;2;1;2;1;1;0;0;0
2;1;0;1;2;1;2;1;1;1;0;1;1;2;1
0;0;2;0;2;1;3;1;1;2;2;1;2;1;2
0;2;1;1;0;0;1;0;0;1;0;2;2;1;2
2;2;1;0;1;0;0;2;1;1;1;2;2;1;0
0;1;1;2;1;1;1;2;1;2;1;2;1;1;0
2;1;2;1;1;0;2;2;0;2;2;0;1;2;0
1;1;2;2;2;2;2;1;1;0;0;0;1;0;0
1;1;2;2;2;2;2;0;0;2;1;2;0;1;2
2;1;2;2;2;1;0;1;2;0;2;2;1;0;1
0;2;2;1;0;2;1;1;1;1;1;1;2;0;0
LEVEL;;;;;;;;;;;;;;
2;;;;;;;;;;;;;;
2;2;0;1;0;2;1;0;0;2;0;2;0;1;0
0;1;1;2;1;1;1;1;2;0;2;1;2;0;1
2;1;2;2;0;0;1;2;1;2;2;0;1;2;2
0;2;2;2;1;0;0;1;0;0;0;2;2;2;1
2;0;1;1;2;0;1;1;2;2;1;0;1;1;0
0;0;2;0;2;2;0;2;2;0;0;2;0;0;0
2;2;2;1;1;2;3;0;0;3;0;2;1;1;1
1;2;0;0;2;2;1;0;0;1;0;0;2;0;0
0;0;0;0;0;2;0;0;0;1;0;2;0;2;0
2;2;2;1;1;1;1;1;0;0;1;1;1;1;1
0;0;2;2;0;0;1;2;1;0;1;1;0;1;0
0;1;1;1;1;0;1;0;2;1;1;0;0;0;2
2;2;2;0;2;0;0;2;2;0;1;0;0;2;2
2;2;1;2;2;1;2;0;1;0;2;2;2;0;2
1;0;0;0;2;0;0;0;0;0;1;0;1;2;2
LEVEL;;;;;;;;;;;;;;
3;;;;;;;;;;;;;;
1;2;2;0;1;1;2;0;2;0;1;2;0;0;2
2;0;0;2;0;0;0;0;0;2;0;2;1;1;1
1;2;0;2;0;0;1;0;0;2;2;1;0;2;2
0;0;0;1;2;0;2;0;2;2;0;2;2;0;0
1;2;1;2;1;0;0;0;0;2;0;1;1;1;1
0;0;1;1;1;1;2;2;1;0;1;1;2;1;2
0;2;0;1;1;1;3;0;2;2;0;0;0;1;0
0;0;1;0;2;0;0;1;2;0;0;2;2;0;0
1;1;1;1;2;1;2;1;0;0;2;0;0;2;0
1;2;2;2;0;1;2;0;0;2;0;0;2;2;2
1;1;0;0;1;1;0;0;2;2;2;0;1;1;2
1;0;2;2;2;0;2;1;2;0;1;2;0;2;0
0;1;1;2;2;2;0;0;0;2;2;1;1;1;0
1;1;1;1;1;2;1;1;2;1;1;1;2;2;1
1;2;0;2;0;0;1;1;0;1;0;2;0;2;2
LEVEL;;;;;;;;;;;;;;
4;;;;;;;;;;;;;;
0;2;1;1;0;2;1;0;2;0;2;2;0;1;1
1;2;2;0;2;0;1;0;2;2;0;1;2;1;0
2;1;1;1;2;1;2;0;0;1;0;1;1;0;1
0;0;1;2;1;2;2;2;1;1;1;2;1;0;1
2;1;2;2;2;0;0;2;2;1;2;1;2;2;1
1;2;0;2;0;2;1;1;0;2;0;1;0;2;2
1;1;2;2;0;2;3;1;1;0;2;0;0;2;0
2;1;0;0;1;1;1;2;1;1;0;2;1;0;2
0;0;0;1;2;1;2;2;0;1;1;0;2;1;2
1;2;0;1;1;0;1;2;1;1;0;2;2;1;2
0;2;2;0;1;2;1;0;1;2;1;0;2;1;0
2;2;0;0;1;0;1;2;0;2;0;2;0;0;2
0;1;2;0;0;1;2;2;1;1;1;1;1;2;2
1;2;0;0;1;1;2;2;2;0;1;2;0;1;1
2;0;0;2;0;0;1;2;1;1;2;0;1;1;2
LEVEL;;;;;;;;;;;;;;
5;;;;;;;;;;;;;;
0;0;2;1;1;2;2;1;0;2;2;1;1;1;0
1;1;2;2;2;2;0;2;2;0;0;2;0;0;1
1;0;0;0;2;0;0;0;2;0;1;0;1;0;2
2;1;0;0;2;2;1;2;0;0;0;1;1;1;0
0;0;1;1;0;0;2;0;0;0;2;2;1;2;1
2;0;2;2;1;2;1;0;3;0;1;2;0;2;1
0;2;1;1;2;1;3;3;1;2;0;2;1;1;1
0;1;1;1;0;2;2;0;0;1;2;0;0;2;0
1;2;0;1;0;2;1;0;2;2;0;2;0;0;1
1;2;1;2;2;1;0;2;2;1;1;0;2;0;1
1;2;2;2;1;0;0;1;1;0;0;1;0;0;1
1;1;2;1;0;0;2;2;2;0;2;1;1;0;0
2;0;2;1;0;2;0;2;0;1;1;0;2;1;0
2;2;2;0;0;0;1;1;0;1;2;2;1;0;1
1;1;0;0;2;1;2;0;2;0;0;1;2;0;0
LEVEL;;;;;;;;;;;;;;
6;;;;;;;;;;;;;;
1;1;2;1;2;0;1;1;0;2;2;2;1;2;0
1;0;2;1;1;0;2;1;0;2;1;2;0;0;0
2;1;0;1;2;2;0;0;2;2;2;1;1;0;2
2;0;0;2;2;0;2;1;1;1;1;1;1;2;1
1;2;1;1;1;2;0;0;0;0;1;1;1;1;0
0;1;0;0;2;2;0;0;0;1;1;1;0;0;2
0;2;2;0;1;0;3;0;0;2;1;2;2;2;0
0;0;0;0;0;2;0;0;1;1;0;0;1;0;2
0;2;0;0;2;2;1;2;1;2;2;2;0;1;2
1;0;2;0;0;0;2;2;0;1;0;1;1;1;2
0;2;0;0;1;1;0;2;0;2;1;2;2;2;1
1;2;0;2;0;1;0;2;1;2;1;2;2;2;1
2;0;0;0;0;1;0;0;0;0;0;0;0;2;2
1;0;1;0;0;0;1;0;2;2;2;2;0;0;1
1;0;0;1;0;2;1;2;2;2;0;0;2;1;1
LEVEL;;;;;;;;;;;;;;
7;;;;;;;;;;;;;;
2;2;2;1;1;2;2;1;0;0;1;2;0;0;1
0;0;0;2;2;1;0;1;0;0;0;0;0;1;0
0;1;0;0;2;2;2;0;1;2;2;0;2;2;1
2;2;0;1;2;1;0;1;2;0;1;0;1;1;0
2;2;0;0;0;0;1;1;0;0;0;0;2;1;2
2;2;2;2;1;1;0;0;2;2;0;0;0;0;1
0;2;1;0;0;0;3;0;0;1;2;2;0;1;0
2;1;2;1;0;1;1;1;0;1;1;2;1;1;1
0;2;1;1;1;2;0;2;1;0;2;0;0;2;1
2;2;0;2;1;1;1;1;2;0;2;0;2;0;1
1;0;0;0;0;2;0;1;1;2;2;2;2;0;2
0;0;2;2;2;1;0;0;1;0;2;1;2;1;0
0;0;1;2;0;1;0;0;2;2;0;0;0;1;0
1;1;1;1;2;1;0;1;0;2;0;1;1;2;0
0;1;1;1;2;2;2;0;1;2;2;0;0;0;2
PLACED CARDS;;;;;;;;;;;;;;
LEVEL; CARD;;;;;;;;;;;;;
0; Move1(Clone);;;;;;;;;;;;;
0; UTurn(Clone);;;;;;;;;;;;;
0; Move3(Clone);;;;;;;;;;;;;
0; RLeft(Clone);;;;;;;;;;;;;
0; Move3(Clone);;;;;;;;;;;;;
1; Move2(Clone);;;;;;;;;;;;;
1; Move1(Clone);;;;;;;;;;;;;
1; RRight(Clone);;;;;;;;;;;;;
1; Back(Clone);;;;;;;;;;;;;
2; Move3(Clone);;;;;;;;;;;;;
2; UTurn(Clone);;;;;;;;;;;;;
2; Move1(Clone);;;;;;;;;;;;;
2; RLeft(Clone);;;;;;;;;;;;;
2; Move2(Clone);;;;;;;;;;;;;
3; Move1(Clone);;;;;;;;;;;;;
3; Back(Clone);;;;;;;;;;;;;
3; Move1(Clone);;;;;;;;;;;;;
3; Move2(Clone);;;;;;;;;;;;;
3; Move2(Clone);;;;;;;;;;;;;
4; Move2(Clone);;;;;;;;;;;;;
4; RRight(Clone);;;;;;;;;;;;;
4; RRight(Clone);;;;;;;;;;;;;
4; RRight(Clone);;;;;;;;;;;;;
4; Move3(Clone);;;;;;;;;;;;;
5; Move1(Clone);;;;;;;;;;;;;
5; Move1(Clone);;;;;;;;;;;;;
5; Move1(Clone);;;;;;;;;;;;;
5; RRight(Clone);;;;;;;;;;;;;
5; Move2(Clone);;;;;;;;;;;;;
6; Move1(Clone);;;;;;;;;;;;;
6; RLeft(Clone);;;;;;;;;;;;;
6; Move2(Clone);;;;;;;;;;;;;
6; Move1(Clone);;;;;;;;;;;;;
6; Move2(Clone);;;;;;;;;;;;;
7; Move1(Clone);;;;;;;;;;;;;
7; RRight(Clone);;;;;;;;;;;;;
7; Back(Clone);;;;;;;;;;;;;
7; Back(Clone);;;;;;;;;;;;;
7; Move2(Clone);;;;;;;;;;;;;
CORRECT COMBINATIONS;;;;;;;;;;;;;;
LEVEL; COMBINATION;;;;;;;;;;;;;
0; C_M1-F_N;;;;;;;;;;;;;
0; C_RR;;;;;;;;;;;;;
0; C_B-F_RR;;;;;;;;;;;;;
0; C_B-F_FN;;;;;;;;;;;;;
0; C_M2-F_G;;;;;;;;;;;;;
1; C_M1-F_N;;;;;;;;;;;;;
1; C_RR;;;;;;;;;;;;;
1; C_B-F_RR;;;;;;;;;;;;;
1; C_B-F_FN;;;;;;;;;;;;;
1; C_M2-F_G;;;;;;;;;;;;;
2; C_M1-F_N;;;;;;;;;;;;;
2; C_RR;;;;;;;;;;;;;
2; C_B-F_RR;;;;;;;;;;;;;
2; C_B-F_FN;;;;;;;;;;;;;
2; C_M2-F_G;;;;;;;;;;;;;
3; C_M1-F_N;;;;;;;;;;;;;
3; C_RR;;;;;;;;;;;;;
3; C_B-F_RR;;;;;;;;;;;;;
3; C_B-F_FN;;;;;;;;;;;;;
3; C_M2-F_G;;;;;;;;;;;;;
4; C_M1-F_N;;;;;;;;;;;;;
4; C_RR;;;;;;;;;;;;;
4; C_B-F_RR;;;;;;;;;;;;;
4; C_B-F_FN;;;;;;;;;;;;;
4; C_M2-F_G;;;;;;;;;;;;;
5; C_M1-F_N;;;;;;;;;;;;;
5; C_RR;;;;;;;;;;;;;
5; C_B-F_RR;;;;;;;;;;;;;
5; C_B-F_FN;;;;;;;;;;;;;
5; C_M2-F_G;;;;;;;;;;;;;
6; C_M1-F_N;;;;;;;;;;;;;
6; C_RR;;;;;;;;;;;;;
6; C_B-F_RR;;;;;;;;;;;;;
6; C_B-F_FN;;;;;;;;;;;;;
6; C_M2-F_G;;;;;;;;;;;;;
7; C_M1-F_N;;;;;;;;;;;;;
7; C_RR;;;;;;;;;;;;;
7; C_B-F_RR;;;;;;;;;;;;;
7; C_B-F_FN;;;;;;;;;;;;;
7; C_M2-F_G;;;;;;;;;;;;;
NUMBER OF CORRECT PLACED CARDS;;;;;;;;;;;;;;
LEVEL; CORRECT;;;;;;;;;;;;;
0;5;;;;;;;;;;;;;
1;1;;;;;;;;;;;;;
2;5;;;;;;;;;;;;;
3;1;;;;;;;;;;;;;
4;5;;;;;;;;;;;;;
5;2;;;;;;;;;;;;;
6;5;;;;;;;;;;;;;
7;5;;;;;;;;;;;;;
TIME BETWEEN CARDS;;;;;;;;;;;;;;
LEVEL; CARD TIME;;;;;;;;;;;;;
0;82,65109;;;;;;;;;;;;;
0;5,040245;;;;;;;;;;;;;
0;5,276932;;;;;;;;;;;;;
0;3,578697;;;;;;;;;;;;;
0;2,227295;;;;;;;;;;;;;
1;50,9288;;;;;;;;;;;;;
1;56,98914;;;;;;;;;;;;;
1;15,73425;;;;;;;;;;;;;
1;1,322388;;;;;;;;;;;;;
1;1,210327;;;;;;;;;;;;;
2;35,20313;;;;;;;;;;;;;
2;7,253754;;;;;;;;;;;;;
2;8,701813;;;;;;;;;;;;;
2;2,269897;;;;;;;;;;;;;
2;1,378174;;;;;;;;;;;;;
3;105,0359;;;;;;;;;;;;;
3;10,20605;;;;;;;;;;;;;
3;2,269836;;;;;;;;;;;;;
3;1,243042;;;;;;;;;;;;;
3;1,667175;;;;;;;;;;;;;
4;126,3708;;;;;;;;;;;;;
4;15,67841;;;;;;;;;;;;;
4;1,65686;;;;;;;;;;;;;
4;1,336731;;;;;;;;;;;;;
4;1,489319;;;;;;;;;;;;;
5;22,67084;;;;;;;;;;;;;
5;11,38916;;;;;;;;;;;;;
5;19,15936;;;;;;;;;;;;;
5;4,107605;;;;;;;;;;;;;
5;1,18335;;;;;;;;;;;;;
6;32,87384;;;;;;;;;;;;;
6;4,539185;;;;;;;;;;;;;
6;2,909424;;;;;;;;;;;;;
6;12,23901;;;;;;;;;;;;;
6;1,350037;;;;;;;;;;;;;
7;96,25275;;;;;;;;;;;;;
7;1,962524;;;;;;;;;;;;;
7;12,92023;;;;;;;;;;;;;
7;2,798645;;;;;;;;;;;;;
7;1,225037;;;;;;;;;;;;;
LEVEL TIMES;;;;;;;;;;;;;;
LEVEL; ELAPSED TIME;;;;;;;;;;;;;
0;98,77426;;;;;;;;;;;;;
1;224,9592;;;;;;;;;;;;;
2;279,7659;;;;;;;;;;;;;
3;400,1879;;;;;;;;;;;;;
4;546,72;;;;;;;;;;;;;
5;605,2303;;;;;;;;;;;;;
6;659,1418;;;;;;;;;;;;;
7;774,301;;;;;;;;;;;;;
TOTAL TIME;;;;;;;;;;;;;;
0CARDS GRABBED;;;;;;;;;;;;;;
LEVEL; ELAPSED TIME; CARD;;;;;;;;;;;;
1;81,84333; Move1;;;;;;;;;;;;
1;82,65109; Move1;;;;;;;;;;;;
1;86,52168; UTurn;;;;;;;;;;;;
1;87,69134; UTurn;;;;;;;;;;;;
1;92,17472; Move3;;;;;;;;;;;;
1;92,96827; Move3;;;;;;;;;;;;
1;95,79448; RLeft;;;;;;;;;;;;
1;96,54697; RLeft;;;;;;;;;;;;
1;97,54955; Move3;;;;;;;;;;;;
1;98,77426; Move3;;;;;;;;;;;;
2;142,3655; Move2;;;;;;;;;;;;
2;149,7031; Move2;;;;;;;;;;;;
2;206,413; RRight;;;;;;;;;;;;
2;206,6922; RRight;;;;;;;;;;;;
2;221,1725; Move1;;;;;;;;;;;;
2;222,4265; Move1;;;;;;;;;;;;
2;223,2061; RRight;;;;;;;;;;;;
2;223,7488; RRight;;;;;;;;;;;;
2;224,4303; Back;;;;;;;;;;;;
2;224,9592; Back;;;;;;;;;;;;
3;259,2572; Move3;;;;;;;;;;;;
3;260,1623; Move3;;;;;;;;;;;;
3;266,4834; UTurn;;;;;;;;;;;;
3;267,416; UTurn;;;;;;;;;;;;
3;275,3525; Move1;;;;;;;;;;;;
3;276,1179; Move1;;;;;;;;;;;;
3;277,4134; RLeft;;;;;;;;;;;;
3;278,3878; RLeft;;;;;;;;;;;;
3;279,1393; Move2;;;;;;;;;;;;
3;279,7659; Move2;;;;;;;;;;;;
4;384,0086; Move1;;;;;;;;;;;;
4;384,8018; Move1;;;;;;;;;;;;
4;387,684; Back;;;;;;;;;;;;
4;395,0078; Back;;;;;;;;;;;;
4;396,5671; Move1;;;;;;;;;;;;
4;397,2777; Move1;;;;;;;;;;;;
4;397,9739; Move2;;;;;;;;;;;;
4;398,5207; Move2;;;;;;;;;;;;
4;399,2683; Move2;;;;;;;;;;;;
4;400,1879; Move2;;;;;;;;;;;;
5;525,0547; Move2;;;;;;;;;;;;
5;526,5587; Move2;;;;;;;;;;;;
5;541,5546; RRight;;;;;;;;;;;;
5;542,2371; RRight;;;;;;;;;;;;
5;543,1835; RRight;;;;;;;;;;;;
5;543,894; RRight;;;;;;;;;;;;
5;544,562; RRight;;;;;;;;;;;;
5;545,2307; RRight;;;;;;;;;;;;
5;545,9134; Move3;;;;;;;;;;;;
5;546,72; Move3;;;;;;;;;;;;
6;568,7085; Move1;;;;;;;;;;;;
6;569,3909; Move1;;;;;;;;;;;;
6;579,8749; Move1;;;;;;;;;;;;
6;580,78; Move1;;;;;;;;;;;;
6;599,1738; Move1;;;;;;;;;;;;
6;599,9394; Move1;;;;;;;;;;;;
6;603,2253; RRight;;;;;;;;;;;;
6;604,047; RRight;;;;;;;;;;;;
6;604,6876; Move2;;;;;;;;;;;;
6;605,2303; Move2;;;;;;;;;;;;
7;637,1579; Move1;;;;;;;;;;;;
7;638,1042; Move1;;;;;;;;;;;;
7;641,9744; RLeft;;;;;;;;;;;;
7;642,6434; RLeft;;;;;;;;;;;;
7;644,7733; Move2;;;;;;;;;;;;
7;645,5528; Move2;;;;;;;;;;;;
7;657,1092; Move1;;;;;;;;;;;;
7;657,7918; Move1;;;;;;;;;;;;
7;658,571; Move2;;;;;;;;;;;;
7;659,1418; Move2;;;;;;;;;;;;
8;754,6283; Move1;;;;;;;;;;;;
8;755,3946; Move1;;;;;;;;;;;;
8;756,5916; RRight;;;;;;;;;;;;
8;757,3571; RRight;;;;;;;;;;;;
8;769,6369; Back;;;;;;;;;;;;
8;770,2773; Back;;;;;;;;;;;;
8;772,4632; Back;;;;;;;;;;;;
8;773,076; Back;;;;;;;;;;;;
8;773,7031; Move2;;;;;;;;;;;;
8;774,301; Move2;;;;;;;;;;;;
CARDS DROPPED;;;;;;;;;;;;;;
LEVEL; ELAPSED TIME; CARD;;;;;;;;;;;;
1;82,60896; Move1;;;;;;;;;;;;
1;82,90185; Move1;;;;;;;;;;;;
1;87,69134; UTurn;;;;;;;;;;;;
1;87,92804; UTurn;;;;;;;;;;;;
1;92,96827; Move3;;;;;;;;;;;;
1;93,19091; Move3;;;;;;;;;;;;
1;96,54697; RLeft;;;;;;;;;;;;
1;96,78368; RLeft;;;;;;;;;;;;
1;98,77426; Move3;;;;;;;;;;;;
1;98,77426; Move3;;;;;;;;;;;;
2;149,6893; Move2;;;;;;;;;;;;
2;149,9257; Move2;;;;;;;;;;;;
2;206,6647; RRight;;;;;;;;;;;;
2;206,9284; RRight;;;;;;;;;;;;
2;222,4265; Move1;;;;;;;;;;;;
2;222,6624; Move1;;;;;;;;;;;;
2;223,7488; RRight;;;;;;;;;;;;
2;223,9852; RRight;;;;;;;;;;;;
2;224,9592; Back;;;;;;;;;;;;
2;224,9592; Back;;;;;;;;;;;;
3;260,1345; Move3;;;;;;;;;;;;
3;260,3849; Move3;;;;;;;;;;;;
3;267,416; UTurn;;;;;;;;;;;;
3;267,6386; UTurn;;;;;;;;;;;;
3;276,1179; Move1;;;;;;;;;;;;
3;276,3549; Move1;;;;;;;;;;;;
3;278,3878; RLeft;;;;;;;;;;;;
3;278,6242; RLeft;;;;;;;;;;;;
3;279,7659; Move2;;;;;;;;;;;;
3;279,7659; Move2;;;;;;;;;;;;
4;384,7739; Move1;;;;;;;;;;;;
4;385,0246; Move1;;;;;;;;;;;;
4;395,0078; Back;;;;;;;;;;;;
4;395,2446; Back;;;;;;;;;;;;
4;397,2777; Move1;;;;;;;;;;;;
4;397,514; Move1;;;;;;;;;;;;
4;398,5207; Move2;;;;;;;;;;;;
4;398,7534; Move2;;;;;;;;;;;;
4;400,1457; Move2;;;;;;;;;;;;
4;400,1879; Move2;;;;;;;;;;;;
5;526,4892; Move2;;;;;;;;;;;;
5;526,7818; Move2;;;;;;;;;;;;
5;542,2371; RRight;;;;;;;;;;;;
5;542,4598; RRight;;;;;;;;;;;;
5;543,894; RRight;;;;;;;;;;;;
5;544,1304; RRight;;;;;;;;;;;;
5;545,2307; RRight;;;;;;;;;;;;
5;545,4533; RRight;;;;;;;;;;;;
5;546,72; Move3;;;;;;;;;;;;
5;546,72; Move3;;;;;;;;;;;;
6;569,3629; Move1;;;;;;;;;;;;
6;569,6133; Move1;;;;;;;;;;;;
6;580,78; Move1;;;;;;;;;;;;
6;581,0032; Move1;;;;;;;;;;;;
6;599,9394; Move1;;;;;;;;;;;;
6;600,1619; Move1;;;;;;;;;;;;
6;604,047; RRight;;;;;;;;;;;;
6;604,2696; RRight;;;;;;;;;;;;
6;605,2303; Move2;;;;;;;;;;;;
6;605,2303; Move2;;;;;;;;;;;;
7;638,0623; Move1;;;;;;;;;;;;
7;638,3546; Move1;;;;;;;;;;;;
7;642,6434; RLeft;;;;;;;;;;;;
7;642,8796; RLeft;;;;;;;;;;;;
7;645,5528; Move2;;;;;;;;;;;;
7;645,7752; Move2;;;;;;;;;;;;
7;657,7918; Move1;;;;;;;;;;;;
7;658,0153; Move1;;;;;;;;;;;;
7;659,1418; Move2;;;;;;;;;;;;
7;659,1418; Move2;;;;;;;;;;;;
8;755,3802; Move1;;;;;;;;;;;;
8;755,6327; Move1;;;;;;;;;;;;
8;757,3571; RRight;;;;;;;;;;;;
8;757,5938; RRight;;;;;;;;;;;;
8;770,2773; Back;;;;;;;;;;;;
8;770,514; Back;;;;;;;;;;;;
8;773,076; Back;;;;;;;;;;;;
8;773,3002; Back;;;;;;;;;;;;
8;774,301; Move2;;;;;;;;;;;;
8;774,301; Move2;;;;;;;;;;;;
