FIELD MATRICES;;;;;;;;;;;;;;
LEVEL;;;;;;;;;;;;;;
0;;;;;;;;;;;;;;
0;0;0;0;0;0;0;0;0;0;0;0;0;0;0
0;0;0;0;0;0;0;0;0;0;0;0;0;0;0
0;0;0;0;0;0;0;0;0;0;0;0;0;0;0
0;0;0;0;0;0;0;0;0;0;0;0;0;0;0
0;0;0;0;0;0;0;0;0;0;0;0;0;0;0
0;0;0;0;0;0;0;0;8;0;0;0;0;0;0
0;0;0;0;0;0;9;2;0;0;0;0;0;0;0
0;0;0;0;0;0;0;0;0;0;0;0;0;0;0
0;0;0;0;0;0;0;0;0;0;0;0;0;0;0
0;0;0;0;0;0;0;0;0;0;0;0;0;0;0
0;0;0;0;0;0;0;0;0;0;0;0;0;0;0
0;0;0;0;0;0;0;0;0;0;0;0;0;0;0
0;0;0;0;0;0;0;0;0;0;0;0;0;0;0
0;0;0;0;0;0;0;0;0;0;0;0;0;0;0
0;0;0;0;0;0;0;0;0;0;0;0;0;0;0
LEVEL;;;;;;;;;;;;;;
1;;;;;;;;;;;;;;
0;0;0;0;0;0;0;0;0;0;0;0;0;0;0
0;0;0;0;0;0;0;0;0;0;0;0;0;0;0
0;0;0;0;0;0;0;0;0;0;0;0;0;0;0
0;0;0;0;0;0;0;0;0;0;0;0;0;0;0
0;0;0;0;0;0;0;0;0;0;0;0;0;0;0
0;0;0;0;0;0;0;0;0;0;0;0;0;0;0
0;0;0;0;0;0;9;0;2;0;0;0;0;0;0
0;0;0;0;0;0;0;7;0;0;0;0;0;0;0
0;0;0;0;0;0;0;8;0;0;0;0;0;0;0
0;0;0;0;0;0;0;0;0;0;0;0;0;0;0
0;0;0;0;0;0;0;0;0;0;0;0;0;0;0
0;0;0;0;0;0;0;0;0;0;0;0;0;0;0
0;0;0;0;0;0;0;0;0;0;0;0;0;0;0
0;0;0;0;0;0;0;0;0;0;0;0;0;0;0
0;0;0;0;0;0;0;0;0;0;0;0;0;0;0
LEVEL;;;;;;;;;;;;;;
2;;;;;;;;;;;;;;
0;0;0;0;0;0;0;0;0;0;0;0;0;0;0
0;0;0;0;0;0;0;0;0;0;0;0;0;0;0
0;0;0;0;0;0;0;0;0;0;0;0;0;0;0
0;0;0;0;0;0;0;0;0;0;0;0;0;0;0
0;0;0;0;0;0;0;0;0;0;0;0;0;0;0
0;0;0;0;0;0;0;8;0;4;4;0;0;0;0
0;0;0;0;0;0;9;4;4;0;6;0;0;0;0
0;0;0;0;0;0;0;0;0;0;0;0;0;0;0
0;0;0;0;0;0;0;0;0;0;0;0;0;0;0
0;0;0;0;0;0;0;0;0;0;0;0;0;0;0
0;0;0;0;0;0;0;0;0;0;0;0;0;0;0
0;0;0;0;0;0;0;0;0;0;0;0;0;0;0
0;0;0;0;0;0;0;0;0;0;0;0;0;0;0
0;0;0;0;0;0;0;0;0;0;0;0;0;0;0
0;0;0;0;0;0;0;0;0;0;0;0;0;0;0
LEVEL;;;;;;;;;;;;;;
3;;;;;;;;;;;;;;
0;0;0;0;0;0;0;0;0;0;0;0;0;0;0
0;0;0;0;0;0;0;0;0;0;0;0;0;0;0
0;0;0;0;0;0;0;0;0;0;0;0;0;0;0
0;0;0;0;0;0;0;0;0;0;0;0;0;0;0
0;0;0;0;0;0;0;0;0;0;0;0;0;0;0
0;0;0;0;0;0;0;0;0;0;0;0;0;0;0
0;0;0;0;0;0;9;2;0;0;0;0;0;0;0
0;0;0;0;0;0;0;0;0;8;0;0;0;0;0
0;0;0;0;0;0;0;0;0;0;0;0;0;0;0
0;0;0;0;0;0;0;0;0;0;0;0;0;0;0
0;0;0;0;0;0;0;0;0;0;0;0;0;0;0
0;0;0;0;0;0;0;0;0;0;0;0;0;0;0
0;0;0;0;0;0;0;0;0;0;0;0;0;0;0
0;0;0;0;0;0;0;0;0;0;0;0;0;0;0
0;0;0;0;0;0;0;0;0;0;0;0;0;0;0
LEVEL;;;;;;;;;;;;;;
4;;;;;;;;;;;;;;
0;0;0;0;0;0;0;0;0;0;0;0;0;0;0
0;0;0;0;0;0;0;0;0;0;0;0;0;0;0
0;0;0;0;0;0;0;0;0;0;0;0;0;0;0
0;0;0;0;0;0;0;0;0;0;0;0;0;0;0
0;0;0;0;0;0;0;0;8;0;0;0;0;0;0
0;0;0;0;0;0;0;4;0;0;0;0;0;0;0
0;0;0;0;0;0;9;4;0;0;0;0;0;0;0
0;0;0;0;0;0;0;0;0;0;0;0;0;0;0
0;0;0;0;0;0;0;0;0;0;0;0;0;0;0
0;0;0;0;0;0;0;0;0;0;0;0;0;0;0
0;0;0;0;0;0;0;0;0;0;0;0;0;0;0
0;0;0;0;0;0;0;0;0;0;0;0;0;0;0
0;0;0;0;0;0;0;0;0;0;0;0;0;0;0
0;0;0;0;0;0;0;0;0;0;0;0;0;0;0
0;0;0;0;0;0;0;0;0;0;0;0;0;0;0
LEVEL;;;;;;;;;;;;;;
5;;;;;;;;;;;;;;
0;0;0;0;0;0;0;0;0;0;0;0;0;0;0
0;0;0;0;0;0;0;0;0;0;0;0;0;0;0
0;0;0;0;0;0;0;0;0;0;0;0;0;0;0
0;0;0;0;0;0;0;0;0;0;0;0;0;0;0
0;0;0;0;0;0;0;0;0;0;0;0;0;0;0
0;0;0;0;0;0;0;0;0;0;0;0;0;0;0
0;0;0;0;0;0;9;0;0;2;0;0;0;0;0
0;0;0;0;0;0;0;0;0;8;6;0;0;0;0
0;0;0;0;0;0;0;0;0;0;0;0;0;0;0
0;0;0;0;0;0;0;0;0;0;0;0;0;0;0
0;0;0;0;0;0;0;0;0;0;0;0;0;0;0
0;0;0;0;0;0;0;0;0;0;0;0;0;0;0
0;0;0;0;0;0;0;0;0;0;0;0;0;0;0
0;0;0;0;0;0;0;0;0;0;0;0;0;0;0
0;0;0;0;0;0;0;0;0;0;0;0;0;0;0
LEVEL;;;;;;;;;;;;;;
6;;;;;;;;;;;;;;
0;0;0;0;0;0;0;0;0;0;0;0;0;0;0
0;0;0;0;0;0;0;0;0;0;0;0;0;0;0
0;0;0;0;0;0;0;0;0;0;0;0;0;0;0
0;0;0;0;0;0;0;0;0;0;0;0;0;0;0
0;0;0;0;0;0;0;0;0;0;0;0;0;0;0
0;0;0;0;0;0;0;0;0;8;7;0;0;0;0
0;0;0;0;0;0;9;2;0;2;0;0;0;0;0
0;0;0;0;0;0;0;0;0;0;0;0;0;0;0
0;0;0;0;0;0;0;0;0;0;0;0;0;0;0
0;0;0;0;0;0;0;0;0;0;0;0;0;0;0
0;0;0;0;0;0;0;0;0;0;0;0;0;0;0
0;0;0;0;0;0;0;0;0;0;0;0;0;0;0
0;0;0;0;0;0;0;0;0;0;0;0;0;0;0
0;0;0;0;0;0;0;0;0;0;0;0;0;0;0
0;0;0;0;0;0;0;0;0;0;0;0;0;0;0
LEVEL;;;;;;;;;;;;;;
7;;;;;;;;;;;;;;
0;0;0;0;0;0;0;0;0;0;0;0;0;0;0
0;0;0;0;0;0;0;0;0;0;0;0;0;0;0
0;0;0;0;0;0;0;0;0;0;0;0;0;0;0
0;0;0;0;0;0;0;0;0;0;0;0;0;0;0
0;0;0;0;0;0;0;0;0;0;0;0;0;0;0
0;0;0;0;0;0;0;0;0;6;0;0;0;0;0
0;0;0;0;0;0;9;2;0;0;0;0;0;0;0
0;0;0;0;0;0;0;0;0;2;0;8;0;0;0
0;0;0;0;0;0;0;0;0;0;0;0;0;0;0
0;0;0;0;0;0;0;0;0;0;0;0;0;0;0
0;0;0;0;0;0;0;0;0;0;0;0;0;0;0
0;0;0;0;0;0;0;0;0;0;0;0;0;0;0
0;0;0;0;0;0;0;0;0;0;0;0;0;0;0
0;0;0;0;0;0;0;0;0;0;0;0;0;0;0
0;0;0;0;0;0;0;0;0;0;0;0;0;0;0
ORIENTATIONS;;;;;;;;;;;;;;
LEVEL;;;;;;;;;;;;;;
0;;;;;;;;;;;;;;
2;1;1;1;2;1;1;1;1;2;1;1;1;2;0
2;2;2;2;0;2;1;0;1;1;2;0;2;2;0
2;0;0;0;2;1;1;0;0;2;1;1;2;2;0
2;2;0;2;1;1;0;0;1;1;2;0;2;1;2
2;2;0;0;1;1;2;1;2;0;2;1;2;0;0
2;1;0;1;0;1;0;0;0;0;2;0;0;2;1
2;0;1;2;2;0;3;3;2;0;2;2;2;1;0
1;1;0;1;2;1;1;2;1;2;0;1;2;0;1
0;1;1;0;0;2;0;2;1;1;0;2;1;2;1
2;2;1;1;0;1;1;0;0;0;0;2;0;1;2
0;2;0;0;1;0;0;2;1;0;1;2;2;1;0
1;0;0;2;0;1;1;2;0;1;1;2;0;0;1
1;1;0;1;2;1;1;2;2;0;1;2;0;2;2
2;1;0;2;0;2;0;0;2;1;0;0;0;1;0
2;2;0;2;2;0;0;2;1;2;0;1;2;0;1
LEVEL;;;;;;;;;;;;;;
1;;;;;;;;;;;;;;
0;1;1;0;0;2;2;2;2;0;2;0;1;2;2
2;2;0;1;1;1;2;1;0;2;0;1;1;1;0
0;0;1;0;1;0;1;0;0;2;2;2;0;2;2
0;1;2;1;2;0;2;2;1;2;0;1;0;2;2
2;2;0;0;1;1;1;2;2;1;0;1;0;0;2
2;2;1;1;1;2;0;1;0;0;2;2;0;2;0
0;2;2;0;0;2;3;2;1;2;2;0;2;1;0
0;2;1;0;2;0;0;0;0;0;1;1;2;2;1
2;1;0;1;0;2;0;0;2;2;0;0;1;0;0
1;1;0;0;0;2;0;2;1;0;2;0;0;2;2
2;0;0;2;2;2;2;2;1;2;1;1;2;1;2
2;1;2;2;0;2;2;0;0;1;0;0;2;0;1
1;2;0;1;1;1;2;1;0;2;0;2;2;0;2
0;1;1;2;2;1;0;1;1;1;0;2;1;2;0
0;0;0;2;2;2;1;0;0;1;2;0;1;0;2
LEVEL;;;;;;;;;;;;;;
2;;;;;;;;;;;;;;
2;0;2;0;2;1;0;0;1;2;2;1;0;1;2
2;0;1;0;0;2;2;0;1;2;0;2;2;2;1
0;2;2;1;1;1;2;0;2;2;0;2;1;1;1
0;2;0;1;1;1;0;0;0;1;1;2;2;1;0
0;1;1;1;0;1;0;1;2;2;0;0;1;0;0
1;2;1;1;2;2;0;0;1;2;2;1;0;2;2
1;1;2;1;2;1;3;0;0;2;0;2;1;0;0
1;1;0;2;0;2;1;1;1;1;2;2;1;2;1
1;2;2;1;1;1;1;0;1;2;1;1;2;0;0
0;2;2;0;1;2;1;2;1;1;1;1;1;1;2
0;0;0;1;1;2;1;1;0;1;1;2;1;0;0
0;0;1;2;0;0;0;2;1;0;1;1;1;2;1
1;0;0;1;1;2;2;2;1;2;0;1;1;2;0
1;2;2;0;2;2;0;2;0;1;2;2;0;0;0
1;1;2;2;1;2;1;2;1;0;0;1;1;2;0
LEVEL;;;;;;;;;;;;;;
3;;;;;;;;;;;;;;
0;1;0;1;2;0;2;0;2;1;0;1;2;1;2
2;2;2;0;0;1;0;2;0;1;2;2;1;1;0
1;0;2;1;2;2;1;2;0;0;0;0;1;1;0
1;2;1;1;2;2;1;1;0;0;1;2;1;0;2
0;0;1;2;2;2;0;2;1;1;1;2;0;0;2
2;0;2;1;0;2;2;1;1;2;1;0;2;2;2
0;1;0;2;0;0;3;3;1;1;1;0;1;2;1
0;2;0;1;2;2;1;1;2;0;1;2;0;1;1
0;0;2;2;0;2;0;2;2;1;2;0;2;2;0
0;0;1;1;2;2;0;2;0;0;2;0;1;1;1
1;0;1;0;0;1;1;1;2;2;0;0;1;1;1
2;1;0;0;2;0;2;0;1;2;2;1;2;1;1
2;0;1;1;0;2;1;2;0;0;2;2;2;1;0
0;2;1;0;0;1;2;1;0;1;1;1;0;1;1
2;0;0;1;0;0;1;0;2;2;0;0;0;0;1
LEVEL;;;;;;;;;;;;;;
4;;;;;;;;;;;;;;
0;2;0;0;1;2;0;0;1;1;1;0;1;0;2
2;2;2;0;1;2;0;1;2;1;0;1;2;1;2
0;2;0;1;1;2;1;1;1;0;0;0;2;0;0
2;0;2;0;0;1;0;0;1;2;0;1;0;1;2
1;0;0;1;2;1;1;2;0;1;0;1;2;0;1
1;0;2;2;1;0;1;3;0;0;0;2;1;0;1
0;2;0;1;1;0;3;3;0;0;1;0;0;2;2
0;1;0;2;2;2;0;0;2;1;0;0;1;2;2
1;1;2;1;1;2;1;1;2;0;1;1;2;2;0
2;2;0;0;1;2;1;2;0;1;0;0;2;0;0
0;0;2;2;1;1;1;1;2;1;2;1;0;2;0
0;0;2;2;2;1;0;1;2;1;0;2;1;1;1
0;0;2;1;2;1;2;1;2;2;0;0;1;0;2
2;1;1;1;2;0;0;0;2;1;2;1;0;1;0
0;0;0;0;0;1;1;1;0;1;2;2;2;2;2
LEVEL;;;;;;;;;;;;;;
5;;;;;;;;;;;;;;
1;2;0;0;1;0;0;1;1;0;2;2;1;0;2
2;0;2;0;2;2;1;1;1;0;1;1;2;0;1
1;2;1;0;2;1;2;2;2;0;1;2;1;2;1
0;0;1;0;1;1;1;0;0;2;1;2;0;2;0
1;1;2;0;1;1;1;1;2;2;0;1;2;0;1
0;2;2;0;1;2;0;1;2;2;1;0;0;0;0
0;0;2;1;2;2;3;2;2;0;0;0;0;0;0
0;0;2;0;0;0;0;1;0;0;0;2;1;2;1
0;1;1;0;1;1;1;2;0;2;0;1;1;2;1
2;0;1;2;1;0;1;2;1;1;2;2;2;0;1
1;1;0;1;0;0;2;1;2;1;1;0;0;1;2
0;1;1;2;1;0;2;2;2;1;0;0;0;0;0
2;0;1;2;0;0;1;0;2;0;0;0;2;1;1
0;0;0;0;1;2;1;2;2;1;1;0;0;2;0
0;1;2;0;1;0;1;2;2;1;2;0;2;2;2
LEVEL;;;;;;;;;;;;;;
6;;;;;;;;;;;;;;
2;0;0;0;1;2;1;2;1;2;1;0;2;2;0
2;0;1;2;2;1;2;2;1;0;2;1;0;0;1
1;1;0;0;0;2;1;0;2;1;0;0;0;2;2
0;2;0;1;1;2;1;0;0;1;1;1;1;0;1
2;2;0;0;0;2;2;2;2;2;2;2;0;1;2
2;1;2;0;1;2;2;1;2;0;0;0;0;1;1
1;0;0;1;2;0;3;0;1;0;2;2;0;1;1
2;2;1;2;0;0;1;2;2;0;0;1;1;0;2
0;2;1;1;1;1;0;2;2;2;0;0;0;1;1
1;0;0;0;0;2;1;2;2;1;1;0;2;1;0
1;0;1;1;2;0;0;1;0;0;2;2;0;1;2
0;1;1;0;2;1;0;0;0;2;2;0;2;2;1
1;0;0;2;1;2;0;2;0;1;0;0;2;0;2
1;2;2;0;0;1;2;1;0;2;1;2;2;0;1
1;0;1;2;2;2;2;2;1;0;1;2;1;0;1
LEVEL;;;;;;;;;;;;;;
7;;;;;;;;;;;;;;
1;1;0;1;0;2;1;1;0;2;0;0;0;1;1
1;0;0;2;1;1;0;1;1;1;1;0;2;2;1
0;1;1;0;0;1;2;1;2;0;2;1;2;2;0
0;1;0;0;2;0;0;0;2;1;2;0;0;2;0
1;0;0;1;1;1;1;2;0;0;0;2;0;2;2
1;1;0;2;2;1;1;2;2;0;1;2;1;1;1
0;1;2;2;0;0;3;3;1;0;1;1;2;2;2
1;2;2;0;1;2;2;1;2;0;2;0;2;1;0
1;0;2;1;1;0;2;1;1;2;1;2;0;1;0
2;0;0;1;1;0;2;1;2;2;0;1;0;0;2
0;0;0;0;2;0;2;2;1;1;2;2;2;0;1
1;0;2;2;2;2;0;0;0;2;1;2;2;2;1
0;2;2;2;0;1;1;1;1;0;2;1;1;2;2
1;0;2;0;1;1;0;1;1;0;0;0;0;2;2
2;2;0;2;2;1;0;1;2;0;2;2;0;0;1
PLACED CARDS;;;;;;;;;;;;;;
LEVEL; CARD;;;;;;;;;;;;;
0; Move1(Clone);;;;;;;;;;;;;
0; Move1(Clone);;;;;;;;;;;;;
0; UTurn(Clone);;;;;;;;;;;;;
0; RRight(Clone);;;;;;;;;;;;;
0; RRight(Clone);;;;;;;;;;;;;
1; Move2(Clone);;;;;;;;;;;;;
1; RRight(Clone);;;;;;;;;;;;;
1; RRight(Clone);;;;;;;;;;;;;
1; Move1(Clone);;;;;;;;;;;;;
1; Move1(Clone);;;;;;;;;;;;;
2; Move1(Clone);;;;;;;;;;;;;
2; Move1(Clone);;;;;;;;;;;;;
2; Move1(Clone);;;;;;;;;;;;;
2; RRight(Clone);;;;;;;;;;;;;
2; Back(Clone);;;;;;;;;;;;;
3; Move1(Clone);;;;;;;;;;;;;
3; RRight(Clone);;;;;;;;;;;;;
3; Move2(Clone);;;;;;;;;;;;;
3; RLeft(Clone);;;;;;;;;;;;;
3; Move2(Clone);;;;;;;;;;;;;
4; Move1(Clone);;;;;;;;;;;;;
4; UTurn(Clone);;;;;;;;;;;;;
4; Back(Clone);;;;;;;;;;;;;
4; Move1(Clone);;;;;;;;;;;;;
4; Move1(Clone);;;;;;;;;;;;;
5; Move3(Clone);;;;;;;;;;;;;
5; RLeft(Clone);;;;;;;;;;;;;
5; Move1(Clone);;;;;;;;;;;;;
5; UTurn(Clone);;;;;;;;;;;;;
5; Move1(Clone);;;;;;;;;;;;;
6; Move1(Clone);;;;;;;;;;;;;
6; Move1(Clone);;;;;;;;;;;;;
6; RLeft(Clone);;;;;;;;;;;;;
6; Move1(Clone);;;;;;;;;;;;;
6; Move1(Clone);;;;;;;;;;;;;
7; Move1(Clone);;;;;;;;;;;;;
7; Move2(Clone);;;;;;;;;;;;;
7; Move2(Clone);;;;;;;;;;;;;
7; RLeft(Clone);;;;;;;;;;;;;
7; Move1(Clone);;;;;;;;;;;;;
CORRECT COMBINATIONS;;;;;;;;;;;;;;
LEVEL; COMBINATION;;;;;;;;;;;;;
0; C_M1-F_F1;;;;;;;;;;;;;
0; C_M2-F_RR;;;;;;;;;;;;;
0; C_M2-F_F1;;;;;;;;;;;;;
0; C_RL;;;;;;;;;;;;;
0; C_M1-F_G;;;;;;;;;;;;;
1; C_M1-F_F1;;;;;;;;;;;;;
1; C_M2-F_RR;;;;;;;;;;;;;
1; C_M2-F_F1;;;;;;;;;;;;;
1; C_RL;;;;;;;;;;;;;
1; C_M1-F_G;;;;;;;;;;;;;
2; C_M1-F_F1;;;;;;;;;;;;;
2; C_M2-F_RR;;;;;;;;;;;;;
2; C_M2-F_F1;;;;;;;;;;;;;
2; C_RL;;;;;;;;;;;;;
2; C_M1-F_G;;;;;;;;;;;;;
3; C_M1-F_F1;;;;;;;;;;;;;
3; C_M2-F_RR;;;;;;;;;;;;;
3; C_M2-F_F1;;;;;;;;;;;;;
3; C_RL;;;;;;;;;;;;;
3; C_M1-F_G;;;;;;;;;;;;;
4; C_M1-F_F1;;;;;;;;;;;;;
4; C_M2-F_RR;;;;;;;;;;;;;
4; C_M2-F_F1;;;;;;;;;;;;;
4; C_RL;;;;;;;;;;;;;
4; C_M1-F_G;;;;;;;;;;;;;
5; C_M1-F_F1;;;;;;;;;;;;;
5; C_M2-F_RR;;;;;;;;;;;;;
5; C_M2-F_F1;;;;;;;;;;;;;
5; C_RL;;;;;;;;;;;;;
5; C_M1-F_G;;;;;;;;;;;;;
6; C_M1-F_F1;;;;;;;;;;;;;
6; C_M2-F_RR;;;;;;;;;;;;;
6; C_M2-F_F1;;;;;;;;;;;;;
6; C_RL;;;;;;;;;;;;;
6; C_M1-F_G;;;;;;;;;;;;;
7; C_M1-F_F1;;;;;;;;;;;;;
7; C_M2-F_RR;;;;;;;;;;;;;
7; C_M2-F_F1;;;;;;;;;;;;;
7; C_RL;;;;;;;;;;;;;
7; C_M1-F_G;;;;;;;;;;;;;
NUMBER OF CORRECT PLACED CARDS;;;;;;;;;;;;;;
LEVEL; CORRECT;;;;;;;;;;;;;
0;5;;;;;;;;;;;;;
1;5;;;;;;;;;;;;;
2;2;;;;;;;;;;;;;
3;5;;;;;;;;;;;;;
4;1;;;;;;;;;;;;;
5;2;;;;;;;;;;;;;
6;5;;;;;;;;;;;;;
7;5;;;;;;;;;;;;;
TIME BETWEEN CARDS;;;;;;;;;;;;;;
LEVEL; CARD TIME;;;;;;;;;;;;;
0;29,20029;;;;;;;;;;;;;
0;9,760324;;;;;;;;;;;;;
0;1,406357;;;;;;;;;;;;;
0;1,030273;;;;;;;;;;;;;
0;1,002361;;;;;;;;;;;;;
1;19,01178;;;;;;;;;;;;;
1;16,01245;;;;;;;;;;;;;
1;1,475311;;;;;;;;;;;;;
1;1,322701;;;;;;;;;;;;;
1;1,434052;;;;;;;;;;;;;
2;45,13652;;;;;;;;;;;;;
2;5,528091;;;;;;;;;;;;;
2;9,442612;;;;;;;;;;;;;
2;1,849335;;;;;;;;;;;;;
2;2,311279;;;;;;;;;;;;;
3;25,88765;;;;;;;;;;;;;
3;2,659729;;;;;;;;;;;;;
3;2,422546;;;;;;;;;;;;;
3;3,048935;;;;;;;;;;;;;
3;1,350845;;;;;;;;;;;;;
4;17,13049;;;;;;;;;;;;;
4;9,272903;;;;;;;;;;;;;
4;2,297577;;;;;;;;;;;;;
4;6,307388;;;;;;;;;;;;;
4;2,352875;;;;;;;;;;;;;
5;81,20769;;;;;;;;;;;;;
5;7,128815;;;;;;;;;;;;;
5;2,798737;;;;;;;;;;;;;
5;1,990967;;;;;;;;;;;;;
5;1,991302;;;;;;;;;;;;;
6;21,05478;;;;;;;;;;;;;
6;4,970734;;;;;;;;;;;;;
6;12,58685;;;;;;;;;;;;;
6;3,257965;;;;;;;;;;;;;
6;2,283813;;;;;;;;;;;;;
7;8,792023;;;;;;;;;;;;;
7;12,93481;;;;;;;;;;;;;
7;8,911041;;;;;;;;;;;;;
7;5,875916;;;;;;;;;;;;;
7;1,197479;;;;;;;;;;;;;
LEVEL TIMES;;;;;;;;;;;;;;
LEVEL; ELAPSED TIME;;;;;;;;;;;;;
0;42,39961;;;;;;;;;;;;;
1;81,6559;;;;;;;;;;;;;
2;145,9237;;;;;;;;;;;;;
3;181,2934;;;;;;;;;;;;;
4;218,6547;;;;;;;;;;;;;
5;313,7722;;;;;;;;;;;;;
6;357,9263;;;;;;;;;;;;;
7;395,6376;;;;;;;;;;;;;
TOTAL TIME;;;;;;;;;;;;;;
0CARDS GRABBED;;;;;;;;;;;;;;
LEVEL; ELAPSED TIME; CARD;;;;;;;;;;;;
1;23,1714; Move1;;;;;;;;;;;;
1;29,20029; Move1;;;;;;;;;;;;
1;37,62411; Move1;;;;;;;;;;;;
1;38,96062; Move1;;;;;;;;;;;;
1;39,7542; UTurn;;;;;;;;;;;;
1;40,36697; UTurn;;;;;;;;;;;;
1;40,93773; RRight;;;;;;;;;;;;
1;41,39725; RRight;;;;;;;;;;;;
1;41,89843; RRight;;;;;;;;;;;;
1;42,39961; RRight;;;;;;;;;;;;
2;58,40332; Move2;;;;;;;;;;;;
2;61,41139; Move2;;;;;;;;;;;;
2;74,8616; RRight;;;;;;;;;;;;
2;77,42384; RRight;;;;;;;;;;;;
2;78,28649; RRight;;;;;;;;;;;;
2;78,89915; RRight;;;;;;;;;;;;
2;79,58136; Move1;;;;;;;;;;;;
2;80,22185; Move1;;;;;;;;;;;;
2;80,89053; Move1;;;;;;;;;;;;
2;81,6559; Move1;;;;;;;;;;;;
3;115,5837; Move1;;;;;;;;;;;;
3;126,7924; Move1;;;;;;;;;;;;
3;131,3316; Move1;;;;;;;;;;;;
3;132,3205; Move1;;;;;;;;;;;;
3;140,8138; Move1;;;;;;;;;;;;
3;141,7631; Move1;;;;;;;;;;;;
3;142,9855; RRight;;;;;;;;;;;;
3;143,6125; RRight;;;;;;;;;;;;
3;144,6426; Back;;;;;;;;;;;;
3;145,9237; Back;;;;;;;;;;;;
4;169,2493; Move1;;;;;;;;;;;;
4;171,8114; Move1;;;;;;;;;;;;
4;173,4544; RRight;;;;;;;;;;;;
4;174,4711; RRight;;;;;;;;;;;;
4;176,114; Move2;;;;;;;;;;;;
4;176,8937; Move2;;;;;;;;;;;;
4;177,6314; RLeft;;;;;;;;;;;;
4;179,9426; RLeft;;;;;;;;;;;;
4;180,6388; Move2;;;;;;;;;;;;
4;181,2934; Move2;;;;;;;;;;;;
5;196,8788; Move1;;;;;;;;;;;;
5;198,4239; Move1;;;;;;;;;;;;
5;205,9985; UTurn;;;;;;;;;;;;
5;207,6968; UTurn;;;;;;;;;;;;
5;209,2287; Back;;;;;;;;;;;;
5;209,9944; Back;;;;;;;;;;;;
5;213,8934; Move1;;;;;;;;;;;;
5;216,3018; Move1;;;;;;;;;;;;
5;217,7775; Move1;;;;;;;;;;;;
5;218,6547; Move1;;;;;;;;;;;;
6;299,1799; Move3;;;;;;;;;;;;
6;299,8624; Move3;;;;;;;;;;;;
6;304,9166; RLeft;;;;;;;;;;;;
6;306,9912; RLeft;;;;;;;;;;;;
6;308,7175; Move1;;;;;;;;;;;;
6;309,7899; Move1;;;;;;;;;;;;
6;310,8062; UTurn;;;;;;;;;;;;
6;311,7809; UTurn;;;;;;;;;;;;
6;312,8392; Move1;;;;;;;;;;;;
6;313,7722; Move1;;;;;;;;;;;;
7;333,713; Move1;;;;;;;;;;;;
7;334,827; Move1;;;;;;;;;;;;
7;339,0038; Move1;;;;;;;;;;;;
7;339,7977; Move1;;;;;;;;;;;;
7;351,2148; RLeft;;;;;;;;;;;;
7;352,3846; RLeft;;;;;;;;;;;;
7;354,891; Move1;;;;;;;;;;;;
7;355,6425; Move1;;;;;;;;;;;;
7;356,8257; Move1;;;;;;;;;;;;
7;357,9263; Move1;;;;;;;;;;;;
8;365,7162; Move1;;;;;;;;;;;;
8;366,7184; Move1;;;;;;;;;;;;
8;377,7317; Move2;;;;;;;;;;;;
8;379,6532; Move2;;;;;;;;;;;;
8;387,7987; Move2;;;;;;;;;;;;
8;388,5642; Move2;;;;;;;;;;;;
8;393,702; RLeft;;;;;;;;;;;;
8;394,4401; RLeft;;;;;;;;;;;;
8;395,1082; Move1;;;;;;;;;;;;
8;395,6376; Move1;;;;;;;;;;;;
CARDS DROPPED;;;;;;;;;;;;;;
LEVEL; ELAPSED TIME; CARD;;;;;;;;;;;;
1;29,17251; Move1;;;;;;;;;;;;
1;29,43686; Move1;;;;;;;;;;;;
1;38,96062; Move1;;;;;;;;;;;;
1;39,19719; Move1;;;;;;;;;;;;
1;40,36697; UTurn;;;;;;;;;;;;
1;40,61788; UTurn;;;;;;;;;;;;
1;41,39725; RRight;;;;;;;;;;;;
1;41,64804; RRight;;;;;;;;;;;;
1;42,39961; RRight;;;;;;;;;;;;
1;42,39961; RRight;;;;;;;;;;;;
2;61,39741; Move2;;;;;;;;;;;;
2;61,64789; Move2;;;;;;;;;;;;
2;77,38142; RRight;;;;;;;;;;;;
2;77,67421; RRight;;;;;;;;;;;;
2;78,89915; RRight;;;;;;;;;;;;
2;79,13577; RRight;;;;;;;;;;;;
2;80,22185; Move1;;;;;;;;;;;;
2;80,45853; Move1;;;;;;;;;;;;
2;81,57261; Move1;;;;;;;;;;;;
2;81,6559; Move1;;;;;;;;;;;;
3;126,7645; Move1;;;;;;;;;;;;
3;127,0297; Move1;;;;;;;;;;;;
3;132,3205; Move1;;;;;;;;;;;;
3;132,5711; Move1;;;;;;;;;;;;
3;141,7631; Move1;;;;;;;;;;;;
3;142,0111; Move1;;;;;;;;;;;;
3;143,5292; RRight;;;;;;;;;;;;
3;143,8627; RRight;;;;;;;;;;;;
3;145,8818; Back;;;;;;;;;;;;
3;145,9237; Back;;;;;;;;;;;;
4;171,7973; Move1;;;;;;;;;;;;
4;172,0619; Move1;;;;;;;;;;;;
4;174,4711; RRight;;;;;;;;;;;;
4;174,7217; RRight;;;;;;;;;;;;
4;176,8937; Move2;;;;;;;;;;;;
4;177,1023; Move2;;;;;;;;;;;;
4;179,8592; RLeft;;;;;;;;;;;;
4;180,1943; RLeft;;;;;;;;;;;;
4;181,1818; Move2;;;;;;;;;;;;
4;181,2934; Move2;;;;;;;;;;;;
5;198,3963; Move1;;;;;;;;;;;;
5;198,6612; Move1;;;;;;;;;;;;
5;207,6968; UTurn;;;;;;;;;;;;
5;207,9476; UTurn;;;;;;;;;;;;
5;209,9111; Back;;;;;;;;;;;;
5;210,2314; Back;;;;;;;;;;;;
5;216,2182; Move1;;;;;;;;;;;;
5;216,5387; Move1;;;;;;;;;;;;
5;218,5435; Move1;;;;;;;;;;;;
5;218,6547; Move1;;;;;;;;;;;;
6;299,8347; Move3;;;;;;;;;;;;
6;300,099; Move3;;;;;;;;;;;;
6;306,9497; RLeft;;;;;;;;;;;;
6;307,2158; RLeft;;;;;;;;;;;;
6;309,7899; Move1;;;;;;;;;;;;
6;310,0266; Move1;;;;;;;;;;;;
6;311,767; UTurn;;;;;;;;;;;;
6;312,0316; UTurn;;;;;;;;;;;;
6;313,6886; Move1;;;;;;;;;;;;
6;313,7722; Move1;;;;;;;;;;;;
7;334,7989; Move1;;;;;;;;;;;;
7;335,0635; Move1;;;;;;;;;;;;
7;339,7977; Move1;;;;;;;;;;;;
7;340,0204; Move1;;;;;;;;;;;;
7;352,3286; RLeft;;;;;;;;;;;;
7;352,6212; RLeft;;;;;;;;;;;;
7;355,6425; Move1;;;;;;;;;;;;
7;355,893; Move1;;;;;;;;;;;;
7;357,8843; Move1;;;;;;;;;;;;
7;357,9263; Move1;;;;;;;;;;;;
8;366,7043; Move1;;;;;;;;;;;;
8;366,9554; Move1;;;;;;;;;;;;
8;379,6532; Move2;;;;;;;;;;;;
8;379,8896; Move2;;;;;;;;;;;;
8;388,5642; Move2;;;;;;;;;;;;
8;388,8011; Move2;;;;;;;;;;;;
8;394,4401; RLeft;;;;;;;;;;;;
8;394,6771; RLeft;;;;;;;;;;;;
8;395,5538; Move1;;;;;;;;;;;;
8;395,6376; Move1;;;;;;;;;;;;
