MENTAL EFFORT
LEVEL; VALUE
1; -5
2; 0
3; 2
4; 2
5; 3
6; 3
7; -3
8; -2
COMPLEXITY
LEVEL; VALUE
1; -5
2; 0
3; 5
4; 1
5; 2
6; 4
7; -3
8; -4

COMBINATION DIFFICULT
LEVEL; CARD; FIELD; VALUE
1; PCMove1; FieldSimpleCon; 6
1; PCRR; FieldStandard; 6
1; PCUT; FieldStandard; 4
1; PCRR; FieldStandard; 5
1; PCMove1; Goal; 3
2; PCMove2; FieldSimpleCon; 4
2; PCRR; FieldStandard; 2
2; PCRR; FieldStandard; 2
2; PCMove1; FieldRL; 4
2; PCMove1; Goal; 1
3; PCMove1; FieldDoubleCon; 3
3; PCMove1; FieldRR; 7
4; PCMove1; FieldSimpleCon; 4
4; PCRR; FieldStandard; 3
4; PCMove2; FieldStandard; 2
4; PCRL; FieldStandard; 3
4; PCMove2; Goal; 1
5; PCMove1; FieldDoubleCon; 5
6; PCMove3; FieldSimpleCon; 3
6; PCRL; FieldStandard; 4
7; PCMove1; FieldSimpleCon; 4
7; PCMove1; FieldSimpleCon; 3
7; PCRL; FieldStandard; 6
7; PCMove1; FieldRL; 7
7; PCMove1; Goal; 3
8; PCMove1; FieldSimpleCon; 2
8; PCMove2; FieldRR; 6
8; PCMove2; FieldSimpleCon; 4
8; PCRL; FieldStandard; 3
8; PCMove1; Goal; 2
FINAL CARD DIFFICULTIES
LEVEL; VALUE
1; 3
2; 2
3; 2
4; 3
5; 6
6; 6
7; 4
FINAL FIELD DIFFICULTIES
LEVEL; VALUE
1; 4
2; 5
3; 7
4; 7
