%YAML 1.1
%TAG !u! tag:unity3d.com,2011:
--- !u!114 &11400000
MonoBehaviour:
  m_ObjectHideFlags: 0
  m_CorrespondingSourceObject: {fileID: 0}
  m_PrefabInstance: {fileID: 0}
  m_PrefabAsset: {fileID: 0}
  m_GameObject: {fileID: 0}
  m_Enabled: 1
  m_EditorHideFlags: 0
  m_Script: {fileID: 11500000, guid: 5be51871efa6c3e4eae1703925c8f5ac, type: 3}
  m_Name: StringsTable
  m_EditorClassIdentifier: 
  m_SharedTableData: {fileID: 11400000, guid: 5b7f228b7aeb9b8449a5343169213286, type: 2}
  m_Tables:
  - {fileID: 11400000, guid: 3d18a7f8e3fc4db4ba6151dc61e6dac3, type: 2}
  - {fileID: 11400000, guid: 4008937ec6cd7204085c24bbe1c23fff, type: 2}
  m_Extensions: []
  m_Group: String Table
  references:
    version: 1
