%YAML 1.1
%TAG !u! tag:unity3d.com,2011:
--- !u!114 &11400000
MonoBehaviour:
  m_ObjectHideFlags: 0
  m_CorrespondingSourceObject: {fileID: 0}
  m_PrefabInstance: {fileID: 0}
  m_PrefabAsset: {fileID: 0}
  m_GameObject: {fileID: 0}
  m_Enabled: 1
  m_EditorHideFlags: 0
  m_Script: {fileID: 11500000, guid: 5b11a58205ec3474ca216360e9fa74a8, type: 3}
  m_Name: StringsTable Shared Data
  m_EditorClassIdentifier: 
  m_TableCollectionName: StringsTable
  m_TableCollectionNameGuidString: 5b7f228b7aeb9b8449a5343169213286
  m_Entries:
  - m_Id: 686588022784
    m_Key: BtnStart
    m_Metadata:
      m_Items: []
  - m_Id: 796982104064
    m_Key: BtnQuit
    m_Metadata:
      m_Items: []
  - m_Id: 992566693888
    m_Key: BtnTutorial
    m_Metadata:
      m_Items: []
  - m_Id: 6464724127744
    m_Key: MenuDescr
    m_Metadata:
      m_Items: []
  - m_Id: 695803162513408
    m_Key: MenuTxtHeader
    m_Metadata:
      m_Items: []
  - m_Id: 724439215230976
    m_Key: BtnBack
    m_Metadata:
      m_Items: []
  - m_Id: 725684567003136
    m_Key: HeaderControls
    m_Metadata:
      m_Items: []
  - m_Id: 731760435777536
    m_Key: HeaderTaskDescr
    m_Metadata:
      m_Items: []
  - m_Id: 732100371533824
    m_Key: TxtTask
    m_Metadata:
      m_Items: []
  - m_Id: 1065493147799552
    m_Key: HeaderCards
    m_Metadata:
      m_Items: []
  - m_Id: 1065690275893248
    m_Key: HeaderFields
    m_Metadata:
      m_Items: []
  - m_Id: 1071217055748096
    m_Key: TxtProcedureA
    m_Metadata:
      m_Items: []
  - m_Id: 1077501876359168
    m_Key: TxtPCBack
    m_Metadata:
      m_Items: []
  - m_Id: 1077976801595392
    m_Key: TxtPCMoveX
    m_Metadata:
      m_Items: []
  - m_Id: 1080751849590784
    m_Key: TxtPCRotate
    m_Metadata:
      m_Items: []
  - m_Id: 1082380279730176
    m_Key: TxtPCUTurn
    m_Metadata:
      m_Items: []
  - m_Id: 1352711250759680
    m_Key: TxtFNorm
    m_Metadata:
      m_Items: []
  - m_Id: 1352929606225920
    m_Key: TxtFConvSimple
    m_Metadata:
      m_Items: []
  - m_Id: 1353355974004736
    m_Key: TxtFConvDouble
    m_Metadata:
      m_Items: []
  - m_Id: 1353681145810944
    m_Key: TxtFRRRL
    m_Metadata:
      m_Items: []
  - m_Id: 1356205005328384
    m_Key: TxtProcedureB
    m_Metadata:
      m_Items: []
  - m_Id: 1356372005736448
    m_Key: TxtHeaderProcedure
    m_Metadata:
      m_Items: []
  - m_Id: 1824483305705472
    m_Key: TxtHeaderTestLevel
    m_Metadata:
      m_Items: []
  - m_Id: 1824815221952512
    m_Key: TxtDescrTestLevel
    m_Metadata:
      m_Items: []
  - m_Id: 1826524505690112
    m_Key: BtnTestLevel
    m_Metadata:
      m_Items: []
  - m_Id: 2194996272156672
    m_Key: TxtCongrats
    m_Metadata:
      m_Items: []
  - m_Id: 2195326384852992
    m_Key: TxtFailed
    m_Metadata:
      m_Items: []
  - m_Id: 2196097960628224
    m_Key: TxtHeaderCongrats
    m_Metadata:
      m_Items: []
  - m_Id: 2196178344464384
    m_Key: TxtHeaderFailed
    m_Metadata:
      m_Items: []
  - m_Id: 3943678839476224
    m_Key: TimerTxt
    m_Metadata:
      m_Items: []
  - m_Id: 4241380718530560
    m_Key: NasaSurveyQuest1
    m_Metadata:
      m_Items: []
  - m_Id: 4242465835307008
    m_Key: NasaTextLeft
    m_Metadata:
      m_Items: []
  - m_Id: 4243680354750464
    m_Key: NasaTextRight
    m_Metadata:
      m_Items: []
  - m_Id: 4244354299711488
    m_Key: NasaSurveyQuest2
    m_Metadata:
      m_Items: []
  - m_Id: 4262400775016448
    m_Key: SurveyCombQuest
    m_Metadata:
      m_Items: []
  - m_Id: 4347750641946624
    m_Key: BtnContinue
    m_Metadata:
      m_Items: []
  - m_Id: 4377325010800640
    m_Key: TxtMoveOn
    m_Metadata:
      m_Items: []
  - m_Id: 4738222308839424
    m_Key: QuestionFinalSurveyCards
    m_Metadata:
      m_Items: []
  - m_Id: 4751055679508480
    m_Key: QuestionFinalSurveyFields
    m_Metadata:
      m_Items: []
  - m_Id: 4751315348869120
    m_Key: EndTestHeader
    m_Metadata:
      m_Items: []
  - m_Id: 4751419371802624
    m_Key: EndTestTxt
    m_Metadata:
      m_Items: []
  - m_Id: 5117654555021312
    m_Key: Timer
    m_Metadata:
      m_Items: []
  - m_Id: 5119967348772864
    m_Key: TxtTimerOutHeader
    m_Metadata:
      m_Items: []
  - m_Id: 5120172227940352
    m_Key: TxtTimerOut
    m_Metadata:
      m_Items: []
  - m_Id: 7981350490853376
    m_Key: BtnLoadLevels
    m_Metadata:
      m_Items: []
  m_Metadata:
    m_Items: []
  m_KeyGenerator:
    id: 0
  references:
    version: 1
    00000000:
      type: {class: DistributedUIDGenerator, ns: UnityEngine.Localization.Tables, asm: Unity.Localization}
      data:
        m_CustomEpoch: 1641920964074
