[api-updater (non-obsolete-error-filter)] 25.10.2021 20:42:54 : Starting C:/Program Files/Unity/Hub/Editor/2020.3.12f1/Editor/Data/Tools/ScriptUpdater/APIUpdater.NonObsoleteApiUpdaterDetector.exe
[api-updater (non-obsolete-error-filter)] 
----------------------------------
jit/startup time      : 444,8091ms
moved types parse time: 48ms
candidates parse time : 1ms
C# parse time         : 275ms
candidates check time : 72ms
console write time    : 0ms

[api-updater (non-obsolete-error-filter)] 01.11.2021 18:41:55 : Starting C:/Program Files/Unity/Hub/Editor/2020.3.12f1/Editor/Data/Tools/ScriptUpdater/APIUpdater.NonObsoleteApiUpdaterDetector.exe
[api-updater (non-obsolete-error-filter)] 
----------------------------------
jit/startup time      : 733,0667ms
moved types parse time: 52ms
candidates parse time : 1ms
C# parse time         : 234ms
candidates check time : 43ms
console write time    : 0ms

[api-updater (non-obsolete-error-filter)] 03.11.2021 19:47:26 : Starting C:/Program Files/Unity/Hub/Editor/2020.3.12f1/Editor/Data/Tools/ScriptUpdater/APIUpdater.NonObsoleteApiUpdaterDetector.exe
[api-updater (non-obsolete-error-filter)] 
----------------------------------
jit/startup time      : 78,789ms
moved types parse time: 44ms
candidates parse time : 1ms
C# parse time         : 192ms
candidates check time : 56ms
console write time    : 0ms

[api-updater (non-obsolete-error-filter)] 07.11.2021 14:50:16 : Starting C:/Program Files/Unity/Hub/Editor/2020.3.12f1/Editor/Data/Tools/ScriptUpdater/APIUpdater.NonObsoleteApiUpdaterDetector.exe
[api-updater (non-obsolete-error-filter)] 
----------------------------------
jit/startup time      : 455,7796ms
moved types parse time: 49ms
candidates parse time : 1ms
C# parse time         : 333ms
candidates check time : 99ms
console write time    : 0ms

[api-updater (non-obsolete-error-filter)] 09.11.2021 20:20:44 : Starting C:/Program Files/Unity/Hub/Editor/2020.3.12f1/Editor/Data/Tools/ScriptUpdater/APIUpdater.NonObsoleteApiUpdaterDetector.exe
[api-updater (non-obsolete-error-filter)] 
----------------------------------
jit/startup time      : 641,2862ms
moved types parse time: 47ms
candidates parse time : 1ms
C# parse time         : 302ms
candidates check time : 682ms
console write time    : 0ms

[api-updater (non-obsolete-error-filter)] 10.11.2021 20:09:10 : Starting C:/Program Files/Unity/Hub/Editor/2020.3.12f1/Editor/Data/Tools/ScriptUpdater/APIUpdater.NonObsoleteApiUpdaterDetector.exe
[api-updater (non-obsolete-error-filter)] 
----------------------------------
jit/startup time      : 589,4232ms
moved types parse time: 48ms
candidates parse time : 1ms
C# parse time         : 300ms
candidates check time : 97ms
console write time    : 2ms

[api-updater (non-obsolete-error-filter)] 10.11.2021 20:13:23 : Starting C:/Program Files/Unity/Hub/Editor/2020.3.12f1/Editor/Data/Tools/ScriptUpdater/APIUpdater.NonObsoleteApiUpdaterDetector.exe
[api-updater (non-obsolete-error-filter)] 
----------------------------------
jit/startup time      : 70,8109ms
moved types parse time: 45ms
candidates parse time : 1ms
C# parse time         : 225ms
candidates check time : 91ms
console write time    : 0ms

[api-updater (non-obsolete-error-filter)] 14.11.2021 12:53:17 : Starting C:/Program Files/Unity/Hub/Editor/2020.3.12f1/Editor/Data/Tools/ScriptUpdater/APIUpdater.NonObsoleteApiUpdaterDetector.exe
[api-updater (non-obsolete-error-filter)] 
----------------------------------
jit/startup time      : 488,6926ms
moved types parse time: 47ms
candidates parse time : 1ms
C# parse time         : 206ms
candidates check time : 42ms
console write time    : 0ms

[api-updater (non-obsolete-error-filter)] 14.11.2021 12:55:20 : Starting C:/Program Files/Unity/Hub/Editor/2020.3.12f1/Editor/Data/Tools/ScriptUpdater/APIUpdater.NonObsoleteApiUpdaterDetector.exe
[api-updater (non-obsolete-error-filter)] Exception caught while loading types from G:\Unity Projekte\BA\BA_TestUmbegung\Library\ScriptAssemblies\Unity.TextMeshPro.Editor.dll (some types may not be loaded)
	Exception of type 'System.Reflection.ReflectionTypeLoadException' was thrown.
	  at (wrapper managed-to-native) System.Reflection.Assembly.GetTypes(System.Reflection.Assembly,bool)
  at System.Reflection.Assembly.GetTypes () [0x00000] in <695d1cc93cca45069c528c15c9fdd749>:0 
  at APIUpdater.NonObsoleteApiUpdaterDetector.ExtraInfoParser+<LoadTypesWithMovedFromAttributeAsync>d__3.MoveNext () [0x000c8] in <68bff7873e0e4aa69a14dfc30bebbe3e>:0 
	Could not load file or assembly 'UnityEditor.CoreModule, Version=0.0.0.0, Culture=neutral, PublicKeyToken=null' or one of its dependencies.

[api-updater (non-obsolete-error-filter)] Exception caught while loading types from G:\Unity Projekte\BA\BA_TestUmbegung\Library\ScriptAssemblies\Unity.XR.OpenXR.Features.OculusQuestSupport.Editor.dll (some types may not be loaded)
	Exception of type 'System.Reflection.ReflectionTypeLoadException' was thrown.
	  at (wrapper managed-to-native) System.Reflection.Assembly.GetTypes(System.Reflection.Assembly,bool)
  at System.Reflection.Assembly.GetTypes () [0x00000] in <695d1cc93cca45069c528c15c9fdd749>:0 
  at APIUpdater.NonObsoleteApiUpdaterDetector.ExtraInfoParser+<LoadTypesWithMovedFromAttributeAsync>d__3.MoveNext () [0x000c8] in <68bff7873e0e4aa69a14dfc30bebbe3e>:0 
	Cannot resolve dependency to assembly because it has not been preloaded. When using the ReflectionOnly APIs, dependent assemblies must be pre-loaded or loaded on demand through the ReflectionOnlyAssemblyResolve event.

[api-updater (non-obsolete-error-filter)] 
----------------------------------
jit/startup time      : 75,3065ms
moved types parse time: 45ms
candidates parse time : 1ms
C# parse time         : 192ms
candidates check time : 46ms
console write time    : 0ms

[api-updater (non-obsolete-error-filter)] 14.11.2021 13:02:53 : Starting C:/Program Files/Unity/Hub/Editor/2020.3.12f1/Editor/Data/Tools/ScriptUpdater/APIUpdater.NonObsoleteApiUpdaterDetector.exe
[api-updater (non-obsolete-error-filter)] Exception caught while loading types from G:\Unity Projekte\BA\BA_TestUmbegung\Library\ScriptAssemblies\Unity.TextMeshPro.Editor.dll (some types may not be loaded)
	Exception of type 'System.Reflection.ReflectionTypeLoadException' was thrown.
	  at (wrapper managed-to-native) System.Reflection.Assembly.GetTypes(System.Reflection.Assembly,bool)
  at System.Reflection.Assembly.GetTypes () [0x00000] in <695d1cc93cca45069c528c15c9fdd749>:0 
  at APIUpdater.NonObsoleteApiUpdaterDetector.ExtraInfoParser+<LoadTypesWithMovedFromAttributeAsync>d__3.MoveNext () [0x000c8] in <68bff7873e0e4aa69a14dfc30bebbe3e>:0 
	Could not load file or assembly 'UnityEditor.CoreModule, Version=0.0.0.0, Culture=neutral, PublicKeyToken=null' or one of its dependencies.

[api-updater (non-obsolete-error-filter)] Exception caught while loading types from G:\Unity Projekte\BA\BA_TestUmbegung\Library\ScriptAssemblies\Unity.XR.OpenXR.Features.OculusQuestSupport.Editor.dll (some types may not be loaded)
	Exception of type 'System.Reflection.ReflectionTypeLoadException' was thrown.
	  at (wrapper managed-to-native) System.Reflection.Assembly.GetTypes(System.Reflection.Assembly,bool)
  at System.Reflection.Assembly.GetTypes () [0x00000] in <695d1cc93cca45069c528c15c9fdd749>:0 
  at APIUpdater.NonObsoleteApiUpdaterDetector.ExtraInfoParser+<LoadTypesWithMovedFromAttributeAsync>d__3.MoveNext () [0x000c8] in <68bff7873e0e4aa69a14dfc30bebbe3e>:0 
	Cannot resolve dependency to assembly because it has not been preloaded. When using the ReflectionOnly APIs, dependent assemblies must be pre-loaded or loaded on demand through the ReflectionOnlyAssemblyResolve event.

[api-updater (non-obsolete-error-filter)] 
----------------------------------
jit/startup time      : 68,8158ms
moved types parse time: 44ms
candidates parse time : 1ms
C# parse time         : 191ms
candidates check time : 45ms
console write time    : 0ms

[api-updater (non-obsolete-error-filter)] 14.11.2021 13:06:29 : Starting C:/Program Files/Unity/Hub/Editor/2020.3.12f1/Editor/Data/Tools/ScriptUpdater/APIUpdater.NonObsoleteApiUpdaterDetector.exe
[api-updater (non-obsolete-error-filter)] 
----------------------------------
jit/startup time      : 76,7944ms
moved types parse time: 44ms
candidates parse time : 1ms
C# parse time         : 157ms
candidates check time : 40ms
console write time    : 0ms

[api-updater (non-obsolete-error-filter)] 16.11.2021 19:20:09 : Starting C:/Program Files/Unity/Hub/Editor/2020.3.12f1/Editor/Data/Tools/ScriptUpdater/APIUpdater.NonObsoleteApiUpdaterDetector.exe
[api-updater (non-obsolete-error-filter)] 
----------------------------------
jit/startup time      : 587,9321ms
moved types parse time: 48ms
candidates parse time : 1ms
C# parse time         : 300ms
candidates check time : 89ms
console write time    : 0ms

[api-updater (non-obsolete-error-filter)] 18.11.2021 20:14:31 : Starting C:/Program Files/Unity/Hub/Editor/2020.3.12f1/Editor/Data/Tools/ScriptUpdater/APIUpdater.NonObsoleteApiUpdaterDetector.exe
[api-updater (non-obsolete-error-filter)] 
----------------------------------
jit/startup time      : 588,4264ms
moved types parse time: 46ms
candidates parse time : 1ms
C# parse time         : 279ms
candidates check time : 212ms
console write time    : 0ms

[api-updater (non-obsolete-error-filter)] 18.11.2021 20:14:53 : Starting C:/Program Files/Unity/Hub/Editor/2020.3.12f1/Editor/Data/Tools/ScriptUpdater/APIUpdater.NonObsoleteApiUpdaterDetector.exe
[api-updater (non-obsolete-error-filter)] 
----------------------------------
jit/startup time      : 68,8145ms
moved types parse time: 45ms
candidates parse time : 1ms
C# parse time         : 233ms
candidates check time : 127ms
console write time    : 0ms

[api-updater (non-obsolete-error-filter)] 25.11.2021 20:10:07 : Starting C:/Program Files/Unity/Hub/Editor/2020.3.12f1/Editor/Data/Tools/ScriptUpdater/APIUpdater.NonObsoleteApiUpdaterDetector.exe
[api-updater (non-obsolete-error-filter)] 
----------------------------------
jit/startup time      : 613,3581ms
moved types parse time: 50ms
candidates parse time : 1ms
C# parse time         : 268ms
candidates check time : 47ms
console write time    : 0ms

[api-updater (non-obsolete-error-filter)] 02.12.2021 19:39:22 : Starting C:/Program Files/Unity/Hub/Editor/2020.3.12f1/Editor/Data/Tools/ScriptUpdater/APIUpdater.NonObsoleteApiUpdaterDetector.exe
[api-updater (non-obsolete-error-filter)] 
----------------------------------
jit/startup time      : 586,4308ms
moved types parse time: 47ms
candidates parse time : 1ms
C# parse time         : 272ms
candidates check time : 41ms
console write time    : 0ms

[api-updater (non-obsolete-error-filter)] 02.12.2021 19:40:55 : Starting C:/Program Files/Unity/Hub/Editor/2020.3.12f1/Editor/Data/Tools/ScriptUpdater/APIUpdater.NonObsoleteApiUpdaterDetector.exe
[api-updater (non-obsolete-error-filter)] 
----------------------------------
jit/startup time      : 71,8058ms
moved types parse time: 51ms
candidates parse time : 1ms
C# parse time         : 200ms
candidates check time : 39ms
console write time    : 0ms

[api-updater (non-obsolete-error-filter)] 02.12.2021 19:41:04 : Starting C:/Program Files/Unity/Hub/Editor/2020.3.12f1/Editor/Data/Tools/ScriptUpdater/APIUpdater.NonObsoleteApiUpdaterDetector.exe
[api-updater (non-obsolete-error-filter)] 
----------------------------------
jit/startup time      : 72,8046ms
moved types parse time: 45ms
candidates parse time : 0ms
C# parse time         : 194ms
candidates check time : 39ms
console write time    : 0ms

[api-updater (non-obsolete-error-filter)] 05.12.2021 15:47:45 : Starting C:/Program Files/Unity/Hub/Editor/2020.3.12f1/Editor/Data/Tools/ScriptUpdater/APIUpdater.NonObsoleteApiUpdaterDetector.exe
[api-updater (non-obsolete-error-filter)] 
----------------------------------
jit/startup time      : 610,3685ms
moved types parse time: 47ms
candidates parse time : 1ms
C# parse time         : 280ms
candidates check time : 44ms
console write time    : 0ms

[api-updater (non-obsolete-error-filter)] 05.12.2021 15:47:54 : Starting C:/Program Files/Unity/Hub/Editor/2020.3.12f1/Editor/Data/Tools/ScriptUpdater/APIUpdater.NonObsoleteApiUpdaterDetector.exe
[api-updater (non-obsolete-error-filter)] 
----------------------------------
jit/startup time      : 72,8026ms
moved types parse time: 44ms
candidates parse time : 0ms
C# parse time         : 195ms
candidates check time : 41ms
console write time    : 0ms

[api-updater (non-obsolete-error-filter)] 07.12.2021 20:23:09 : Starting C:/Program Files/Unity/Hub/Editor/2020.3.12f1/Editor/Data/Tools/ScriptUpdater/APIUpdater.NonObsoleteApiUpdaterDetector.exe
[api-updater (non-obsolete-error-filter)] 
----------------------------------
jit/startup time      : 562,0037ms
moved types parse time: 45ms
candidates parse time : 1ms
C# parse time         : 271ms
candidates check time : 49ms
console write time    : 0ms

[api-updater (non-obsolete-error-filter)] 07.12.2021 20:23:55 : Starting C:/Program Files/Unity/Hub/Editor/2020.3.12f1/Editor/Data/Tools/ScriptUpdater/APIUpdater.NonObsoleteApiUpdaterDetector.exe
[api-updater (non-obsolete-error-filter)] 
----------------------------------
jit/startup time      : 70,8096ms
moved types parse time: 51ms
candidates parse time : 1ms
C# parse time         : 257ms
candidates check time : 52ms
console write time    : 0ms

[api-updater (non-obsolete-error-filter)] 14.12.2021 19:20:24 : Starting C:/Program Files/Unity/Hub/Editor/2020.3.12f1/Editor/Data/Tools/ScriptUpdater/APIUpdater.NonObsoleteApiUpdaterDetector.exe
[api-updater (non-obsolete-error-filter)] 
----------------------------------
jit/startup time      : 647,2684ms
moved types parse time: 51ms
candidates parse time : 1ms
C# parse time         : 328ms
candidates check time : 119ms
console write time    : 0ms

[api-updater (non-obsolete-error-filter)] 22.12.2021 20:37:49 : Starting C:/Program Files/Unity/Hub/Editor/2020.3.12f1/Editor/Data/Tools/ScriptUpdater/APIUpdater.NonObsoleteApiUpdaterDetector.exe
[api-updater (non-obsolete-error-filter)] 
----------------------------------
jit/startup time      : 641,3035ms
moved types parse time: 58ms
candidates parse time : 1ms
C# parse time         : 337ms
candidates check time : 119ms
console write time    : 1ms

[api-updater (non-obsolete-error-filter)] 26.12.2021 19:17:45 : Starting C:/Program Files/Unity/Hub/Editor/2020.3.12f1/Editor/Data/Tools/ScriptUpdater/APIUpdater.NonObsoleteApiUpdaterDetector.exe
[api-updater (non-obsolete-error-filter)] 
----------------------------------
jit/startup time      : 649,2647ms
moved types parse time: 49ms
candidates parse time : 1ms
C# parse time         : 322ms
candidates check time : 69ms
console write time    : 0ms

[api-updater (non-obsolete-error-filter)] 02.01.2022 12:43:02 : Starting C:/Program Files/Unity/Hub/Editor/2020.3.12f1/Editor/Data/Tools/ScriptUpdater/APIUpdater.NonObsoleteApiUpdaterDetector.exe
[api-updater (non-obsolete-error-filter)] 
----------------------------------
jit/startup time      : 2485,3922ms
moved types parse time: 56ms
candidates parse time : 1ms
C# parse time         : 363ms
candidates check time : 56ms
console write time    : 0ms

[api-updater (non-obsolete-error-filter)] 06.01.2022 19:49:27 : Starting C:/Program Files/Unity/Hub/Editor/2020.3.12f1/Editor/Data/Tools/ScriptUpdater/APIUpdater.NonObsoleteApiUpdaterDetector.exe
[api-updater (non-obsolete-error-filter)] 
----------------------------------
jit/startup time      : 629,3291ms
moved types parse time: 47ms
candidates parse time : 1ms
C# parse time         : 277ms
candidates check time : 52ms
console write time    : 0ms

[api-updater (non-obsolete-error-filter)] 12.01.2022 19:29:31 : Starting C:/Program Files/Unity/Hub/Editor/2020.3.12f1/Editor/Data/Tools/ScriptUpdater/APIUpdater.NonObsoleteApiUpdaterDetector.exe
[api-updater (non-obsolete-error-filter)] 
----------------------------------
jit/startup time      : 1350,934ms
moved types parse time: 70ms
candidates parse time : 1ms
C# parse time         : 311ms
candidates check time : 54ms
console write time    : 0ms

[api-updater (non-obsolete-error-filter)] 12.01.2022 19:30:06 : Starting C:/Program Files/Unity/Hub/Editor/2020.3.12f1/Editor/Data/Tools/ScriptUpdater/APIUpdater.NonObsoleteApiUpdaterDetector.exe
[api-updater (non-obsolete-error-filter)] 
----------------------------------
jit/startup time      : 92,7529ms
moved types parse time: 57ms
candidates parse time : 1ms
C# parse time         : 266ms
candidates check time : 48ms
console write time    : 0ms

[api-updater (non-obsolete-error-filter)] 12.01.2022 19:50:22 : Starting C:/Program Files/Unity/Hub/Editor/2020.3.12f1/Editor/Data/Tools/ScriptUpdater/APIUpdater.NonObsoleteApiUpdaterDetector.exe
[api-updater (non-obsolete-error-filter)] 
----------------------------------
jit/startup time      : 131,6479ms
moved types parse time: 96ms
candidates parse time : 1ms
C# parse time         : 368ms
candidates check time : 59ms
console write time    : 0ms

[api-updater (non-obsolete-error-filter)] 13.01.2022 19:35:39 : Starting C:/Program Files/Unity/Hub/Editor/2020.3.12f1/Editor/Data/Tools/ScriptUpdater/APIUpdater.NonObsoleteApiUpdaterDetector.exe
[api-updater (non-obsolete-error-filter)] 
----------------------------------
jit/startup time      : 716,6086ms
moved types parse time: 53ms
candidates parse time : 1ms
C# parse time         : 351ms
candidates check time : 94ms
console write time    : 0ms

[api-updater (non-obsolete-error-filter)] 14.01.2022 14:09:51 : Starting C:/Program Files/Unity/Hub/Editor/2020.3.12f1/Editor/Data/Tools/ScriptUpdater/APIUpdater.NonObsoleteApiUpdaterDetector.exe
[api-updater (non-obsolete-error-filter)] 
----------------------------------
jit/startup time      : 75,7968ms
moved types parse time: 52ms
candidates parse time : 1ms
C# parse time         : 239ms
candidates check time : 69ms
console write time    : 0ms

[api-updater (non-obsolete-error-filter)] 16.01.2022 19:51:16 : Starting C:/Program Files/Unity/Hub/Editor/2020.3.12f1/Editor/Data/Tools/ScriptUpdater/APIUpdater.NonObsoleteApiUpdaterDetector.exe
[api-updater (non-obsolete-error-filter)] 
----------------------------------
jit/startup time      : 740,0198ms
moved types parse time: 50ms
candidates parse time : 1ms
C# parse time         : 353ms
candidates check time : 84ms
console write time    : 1ms

[api-updater (non-obsolete-error-filter)] 16.01.2022 20:06:07 : Starting C:/Program Files/Unity/Hub/Editor/2020.3.12f1/Editor/Data/Tools/ScriptUpdater/APIUpdater.NonObsoleteApiUpdaterDetector.exe
[api-updater (non-obsolete-error-filter)] 
----------------------------------
jit/startup time      : 81,781ms
moved types parse time: 51ms
candidates parse time : 1ms
C# parse time         : 322ms
candidates check time : 205ms
console write time    : 0ms

[api-updater (non-obsolete-error-filter)] 16.01.2022 20:07:12 : Starting C:/Program Files/Unity/Hub/Editor/2020.3.12f1/Editor/Data/Tools/ScriptUpdater/APIUpdater.NonObsoleteApiUpdaterDetector.exe
[api-updater (non-obsolete-error-filter)] 
----------------------------------
jit/startup time      : 81,2921ms
moved types parse time: 51ms
candidates parse time : 1ms
C# parse time         : 251ms
candidates check time : 70ms
console write time    : 0ms

[api-updater (non-obsolete-error-filter)] 19.01.2022 22:09:03 : Starting C:/Program Files/Unity/Hub/Editor/2020.3.12f1/Editor/Data/Tools/ScriptUpdater/APIUpdater.NonObsoleteApiUpdaterDetector.exe
[api-updater (non-obsolete-error-filter)] 
----------------------------------
jit/startup time      : 1898,9567ms
moved types parse time: 63ms
candidates parse time : 1ms
C# parse time         : 442ms
candidates check time : 132ms
console write time    : 0ms

[api-updater (non-obsolete-error-filter)] 22.01.2022 16:31:57 : Starting C:/Program Files/Unity/Hub/Editor/2020.3.12f1/Editor/Data/Tools/ScriptUpdater/APIUpdater.NonObsoleteApiUpdaterDetector.exe
[api-updater (non-obsolete-error-filter)] 
----------------------------------
jit/startup time      : 968,4214ms
moved types parse time: 52ms
candidates parse time : 1ms
C# parse time         : 247ms
candidates check time : 44ms
console write time    : 0ms

[api-updater (non-obsolete-error-filter)] 23.01.2022 15:01:30 : Starting C:/Program Files/Unity/Hub/Editor/2020.3.12f1/Editor/Data/Tools/ScriptUpdater/APIUpdater.NonObsoleteApiUpdaterDetector.exe
[api-updater (non-obsolete-error-filter)] 
----------------------------------
jit/startup time      : 820,8156ms
moved types parse time: 51ms
candidates parse time : 1ms
C# parse time         : 325ms
candidates check time : 96ms
console write time    : 0ms

[api-updater (non-obsolete-error-filter)] 23.01.2022 18:33:44 : Starting C:/Program Files/Unity/Hub/Editor/2020.3.12f1/Editor/Data/Tools/ScriptUpdater/APIUpdater.NonObsoleteApiUpdaterDetector.exe
[api-updater (non-obsolete-error-filter)] 
----------------------------------
jit/startup time      : 155,5829ms
moved types parse time: 103ms
candidates parse time : 1ms
C# parse time         : 326ms
candidates check time : 129ms
console write time    : 0ms

[api-updater (non-obsolete-error-filter)] 26.01.2022 19:17:11 : Starting C:/Program Files/Unity/Hub/Editor/2020.3.12f1/Editor/Data/Tools/ScriptUpdater/APIUpdater.NonObsoleteApiUpdaterDetector.exe
[api-updater (non-obsolete-error-filter)] 
----------------------------------
jit/startup time      : 819,3136ms
moved types parse time: 55ms
candidates parse time : 1ms
C# parse time         : 271ms
candidates check time : 51ms
console write time    : 0ms

[api-updater (non-obsolete-error-filter)] 28.01.2022 18:51:53 : Starting C:/Program Files/Unity/Hub/Editor/2020.3.12f1/Editor/Data/Tools/ScriptUpdater/APIUpdater.NonObsoleteApiUpdaterDetector.exe
[api-updater (non-obsolete-error-filter)] 
----------------------------------
jit/startup time      : 569,4767ms
moved types parse time: 49ms
candidates parse time : 1ms
C# parse time         : 250ms
candidates check time : 60ms
console write time    : 0ms

[api-updater (non-obsolete-error-filter)] 28.01.2022 18:51:54 : Starting C:/Program Files/Unity/Hub/Editor/2020.3.12f1/Editor/Data/Tools/ScriptUpdater/APIUpdater.NonObsoleteApiUpdaterDetector.exe
[api-updater (non-obsolete-error-filter)] 
----------------------------------
jit/startup time      : 93,748ms
moved types parse time: 44ms
candidates parse time : 1ms
C# parse time         : 197ms
candidates check time : 56ms
console write time    : 0ms

[api-updater (non-obsolete-error-filter)] 03.02.2022 20:12:45 : Starting C:/Program Files/Unity/Hub/Editor/2020.3.12f1/Editor/Data/Tools/ScriptUpdater/APIUpdater.NonObsoleteApiUpdaterDetector.exe
[api-updater (non-obsolete-error-filter)] 
----------------------------------
jit/startup time      : 793,9085ms
moved types parse time: 80ms
candidates parse time : 1ms
C# parse time         : 306ms
candidates check time : 68ms
console write time    : 0ms

[api-updater (non-obsolete-error-filter)] 03.02.2022 20:12:57 : Starting C:/Program Files/Unity/Hub/Editor/2020.3.12f1/Editor/Data/Tools/ScriptUpdater/APIUpdater.NonObsoleteApiUpdaterDetector.exe
[api-updater (non-obsolete-error-filter)] 
----------------------------------
jit/startup time      : 77,7914ms
moved types parse time: 48ms
candidates parse time : 1ms
C# parse time         : 222ms
candidates check time : 73ms
console write time    : 0ms

[api-updater (non-obsolete-error-filter)] 03.02.2022 20:14:33 : Starting C:/Program Files/Unity/Hub/Editor/2020.3.12f1/Editor/Data/Tools/ScriptUpdater/APIUpdater.NonObsoleteApiUpdaterDetector.exe
[api-updater (non-obsolete-error-filter)] 
----------------------------------
jit/startup time      : 81,7804ms
moved types parse time: 47ms
candidates parse time : 1ms
C# parse time         : 191ms
candidates check time : 56ms
console write time    : 0ms

[api-updater (non-obsolete-error-filter)] 05.02.2022 14:40:46 : Starting C:/Program Files/Unity/Hub/Editor/2020.3.12f1/Editor/Data/Tools/ScriptUpdater/APIUpdater.NonObsoleteApiUpdaterDetector.exe
[api-updater (non-obsolete-error-filter)] 
----------------------------------
jit/startup time      : 108,7092ms
moved types parse time: 55ms
candidates parse time : 1ms
C# parse time         : 209ms
candidates check time : 81ms
console write time    : 0ms

[api-updater (non-obsolete-error-filter)] 05.02.2022 14:41:22 : Starting C:/Program Files/Unity/Hub/Editor/2020.3.12f1/Editor/Data/Tools/ScriptUpdater/APIUpdater.NonObsoleteApiUpdaterDetector.exe
[api-updater (non-obsolete-error-filter)] 
----------------------------------
jit/startup time      : 86,7674ms
moved types parse time: 50ms
candidates parse time : 1ms
C# parse time         : 212ms
candidates check time : 79ms
console write time    : 0ms

[api-updater (non-obsolete-error-filter)] 05.02.2022 14:42:18 : Starting C:/Program Files/Unity/Hub/Editor/2020.3.12f1/Editor/Data/Tools/ScriptUpdater/APIUpdater.NonObsoleteApiUpdaterDetector.exe
[api-updater (non-obsolete-error-filter)] 
----------------------------------
jit/startup time      : 75,7954ms
moved types parse time: 50ms
candidates parse time : 1ms
C# parse time         : 196ms
candidates check time : 79ms
console write time    : 0ms

[api-updater (non-obsolete-error-filter)] 05.02.2022 14:45:04 : Starting C:/Program Files/Unity/Hub/Editor/2020.3.12f1/Editor/Data/Tools/ScriptUpdater/APIUpdater.NonObsoleteApiUpdaterDetector.exe
[api-updater (non-obsolete-error-filter)] 
----------------------------------
jit/startup time      : 81,7807ms
moved types parse time: 51ms
candidates parse time : 1ms
C# parse time         : 212ms
candidates check time : 51ms
console write time    : 0ms

[api-updater (non-obsolete-error-filter)] 05.02.2022 14:45:12 : Starting C:/Program Files/Unity/Hub/Editor/2020.3.12f1/Editor/Data/Tools/ScriptUpdater/APIUpdater.NonObsoleteApiUpdaterDetector.exe
[api-updater (non-obsolete-error-filter)] 
----------------------------------
jit/startup time      : 76,7939ms
moved types parse time: 48ms
candidates parse time : 1ms
C# parse time         : 203ms
candidates check time : 52ms
console write time    : 0ms

[api-updater (non-obsolete-error-filter)] 05.02.2022 15:22:43 : Starting C:/Program Files/Unity/Hub/Editor/2020.3.12f1/Editor/Data/Tools/ScriptUpdater/APIUpdater.NonObsoleteApiUpdaterDetector.exe
[api-updater (non-obsolete-error-filter)] 
----------------------------------
jit/startup time      : 80,7832ms
moved types parse time: 50ms
candidates parse time : 1ms
C# parse time         : 206ms
candidates check time : 48ms
console write time    : 0ms

[api-updater (non-obsolete-error-filter)] 06.02.2022 15:17:12 : Starting C:/Program Files/Unity/Hub/Editor/2020.3.12f1/Editor/Data/Tools/ScriptUpdater/APIUpdater.NonObsoleteApiUpdaterDetector.exe
[api-updater (non-obsolete-error-filter)] 
----------------------------------
jit/startup time      : 127,6587ms
moved types parse time: 59ms
candidates parse time : 1ms
C# parse time         : 281ms
candidates check time : 66ms
console write time    : 0ms

[api-updater (non-obsolete-error-filter)] 06.02.2022 15:18:31 : Starting C:/Program Files/Unity/Hub/Editor/2020.3.12f1/Editor/Data/Tools/ScriptUpdater/APIUpdater.NonObsoleteApiUpdaterDetector.exe
[api-updater (non-obsolete-error-filter)] 
----------------------------------
jit/startup time      : 79,7863ms
moved types parse time: 50ms
candidates parse time : 1ms
C# parse time         : 232ms
candidates check time : 59ms
console write time    : 0ms

[api-updater (non-obsolete-error-filter)] 06.02.2022 15:19:54 : Starting C:/Program Files/Unity/Hub/Editor/2020.3.12f1/Editor/Data/Tools/ScriptUpdater/APIUpdater.NonObsoleteApiUpdaterDetector.exe
[api-updater (non-obsolete-error-filter)] 
----------------------------------
jit/startup time      : 118,6821ms
moved types parse time: 55ms
candidates parse time : 1ms
C# parse time         : 250ms
candidates check time : 61ms
console write time    : 0ms

[api-updater (non-obsolete-error-filter)] 06.02.2022 15:21:36 : Starting C:/Program Files/Unity/Hub/Editor/2020.3.12f1/Editor/Data/Tools/ScriptUpdater/APIUpdater.NonObsoleteApiUpdaterDetector.exe
[api-updater (non-obsolete-error-filter)] 
----------------------------------
jit/startup time      : 93,7488ms
moved types parse time: 54ms
candidates parse time : 1ms
C# parse time         : 255ms
candidates check time : 59ms
console write time    : 0ms

[api-updater (non-obsolete-error-filter)] 06.02.2022 15:21:57 : Starting C:/Program Files/Unity/Hub/Editor/2020.3.12f1/Editor/Data/Tools/ScriptUpdater/APIUpdater.NonObsoleteApiUpdaterDetector.exe
[api-updater (non-obsolete-error-filter)] 
----------------------------------
jit/startup time      : 91,7545ms
moved types parse time: 52ms
candidates parse time : 1ms
C# parse time         : 225ms
candidates check time : 64ms
console write time    : 0ms

[api-updater (non-obsolete-error-filter)] 06.02.2022 15:22:43 : Starting C:/Program Files/Unity/Hub/Editor/2020.3.12f1/Editor/Data/Tools/ScriptUpdater/APIUpdater.NonObsoleteApiUpdaterDetector.exe
[api-updater (non-obsolete-error-filter)] 
----------------------------------
jit/startup time      : 81,7805ms
moved types parse time: 54ms
candidates parse time : 1ms
C# parse time         : 230ms
candidates check time : 58ms
console write time    : 0ms

[api-updater (non-obsolete-error-filter)] 06.02.2022 15:25:01 : Starting C:/Program Files/Unity/Hub/Editor/2020.3.12f1/Editor/Data/Tools/ScriptUpdater/APIUpdater.NonObsoleteApiUpdaterDetector.exe
[api-updater (non-obsolete-error-filter)] 
----------------------------------
jit/startup time      : 79,2948ms
moved types parse time: 57ms
candidates parse time : 1ms
C# parse time         : 298ms
candidates check time : 74ms
console write time    : 0ms

[api-updater (non-obsolete-error-filter)] 06.02.2022 16:20:19 : Starting C:/Program Files/Unity/Hub/Editor/2020.3.12f1/Editor/Data/Tools/ScriptUpdater/APIUpdater.NonObsoleteApiUpdaterDetector.exe
[api-updater (non-obsolete-error-filter)] 
----------------------------------
jit/startup time      : 135,6578ms
moved types parse time: 64ms
candidates parse time : 2ms
C# parse time         : 462ms
candidates check time : 139ms
console write time    : 0ms

[api-updater (non-obsolete-error-filter)] 06.02.2022 19:19:08 : Starting C:/Program Files/Unity/Hub/Editor/2020.3.12f1/Editor/Data/Tools/ScriptUpdater/APIUpdater.NonObsoleteApiUpdaterDetector.exe
[api-updater (non-obsolete-error-filter)] 
----------------------------------
jit/startup time      : 90,7564ms
moved types parse time: 50ms
candidates parse time : 1ms
C# parse time         : 236ms
candidates check time : 69ms
console write time    : 0ms

[api-updater (non-obsolete-error-filter)] 15.02.2022 12:44:02 : Starting C:/Program Files/Unity/Hub/Editor/2020.3.12f1/Editor/Data/Tools/ScriptUpdater/APIUpdater.NonObsoleteApiUpdaterDetector.exe
[api-updater (non-obsolete-error-filter)] 
----------------------------------
jit/startup time      : 779,4348ms
moved types parse time: 50ms
candidates parse time : 0ms
C# parse time         : 307ms
candidates check time : 58ms
console write time    : 0ms

[api-updater (non-obsolete-error-filter)] 15.02.2022 12:45:58 : Starting C:/Program Files/Unity/Hub/Editor/2020.3.12f1/Editor/Data/Tools/ScriptUpdater/APIUpdater.NonObsoleteApiUpdaterDetector.exe
[api-updater (non-obsolete-error-filter)] 
----------------------------------
jit/startup time      : 79,2985ms
moved types parse time: 54ms
candidates parse time : 1ms
C# parse time         : 225ms
candidates check time : 63ms
console write time    : 0ms

[api-updater (non-obsolete-error-filter)] 18.02.2022 14:30:40 : Starting C:/Program Files/Unity/Hub/Editor/2020.3.12f1/Editor/Data/Tools/ScriptUpdater/APIUpdater.NonObsoleteApiUpdaterDetector.exe
[api-updater (non-obsolete-error-filter)] 
----------------------------------
jit/startup time      : 569,4771ms
moved types parse time: 47ms
candidates parse time : 1ms
C# parse time         : 248ms
candidates check time : 45ms
console write time    : 0ms

[api-updater (non-obsolete-error-filter)] 24.02.2022 13:54:42 : Starting C:/Program Files/Unity/Hub/Editor/2020.3.12f1/Editor/Data/Tools/ScriptUpdater/APIUpdater.NonObsoleteApiUpdaterDetector.exe
[api-updater (non-obsolete-error-filter)] 
----------------------------------
jit/startup time      : 991,3638ms
moved types parse time: 55ms
candidates parse time : 1ms
C# parse time         : 368ms
candidates check time : 126ms
console write time    : 0ms

