MENTAL EFFORT
LEVEL; VALUE
1; -10
2; -10
3; -10
4; -10
5; 0
6; -10
7; -10
8; 0
COMPLEXITY
LEVEL; VALUE
1; -10
2; -10
3; -10
4; -10
5; 0
6; -10
7; -10
8; 0

COMBINATION DIFFICULT
LEVEL; CARD; FIELD; VALUE
1; PCMove1; FieldSimpleCon; 0
1; PCRL; FieldStandard; 0
1; PCMove2; FieldRL; 0
1; PCMove1; FieldRL; 0
1; PCMove1; Goal; 0
2; PCMove3; FieldSimpleCon; 0
2; PCUT; FieldStandard; 0
2; PCMove3; FieldStandard; 0
2; PCRL; FieldStandard; 0
2; PCMove2; Goal; 0
3; PCMove1; FieldDoubleCon; 0
3; PCMove2; FieldRL; 0
3; PCMove2; FieldRL; 0
3; PCMove1; FieldRL; 0
3; PCMove1; Goal; 0
4; PCMove1; FieldSimpleCon; 0
4; PCMove1; FieldStandard; 0
4; PCUT; FieldStandard; 0
4; PCRL; FieldStandard; 0
4; PCMove1; Goal; 0
5; PCMove1; FieldSimpleCon; 5
6; PCMove2; FieldStandard; 0
6; PCRL; FieldStandard; 0
6; PCBack; FieldRR; 0
6; PCMove2; FieldRL; 0
6; PCMove2; Goal; 0
7; PCMove1; FieldStandard; 0
7; PCRL; FieldStandard; 0
7; PCRL; FieldStandard; 0
7; PCUT; FieldStandard; 1
7; PCMove1; Goal; 0
8; PCMove1; FieldSimpleCon; 0
FINAL CARD DIFFICULTIES
LEVEL; VALUE
1; 0
2; 0
3; 0
4; 1
5; 0
6; 0
7; 0
FINAL FIELD DIFFICULTIES
LEVEL; VALUE
1; 0
2; 4
3; 0
4; 0
