FIELD MATRICES
LEVEL
0
0;0;0;0;0;0;0;0;0;0;0;0;0;0;0;
0;0;0;0;0;0;0;0;0;0;0;0;0;0;0;
0;0;0;0;0;0;0;0;0;0;0;0;0;0;0;
0;0;0;0;0;0;0;0;0;0;0;0;0;0;0;
0;0;0;0;0;0;0;0;0;0;0;0;0;0;0;
0;0;0;0;0;0;0;0;8;0;4;4;0;0;0;
0;0;0;0;0;0;9;2;0;0;0;0;0;0;0;
0;0;0;0;0;0;0;0;0;0;0;0;0;0;0;
0;0;0;0;0;0;0;0;0;0;0;0;0;0;0;
0;0;0;0;0;0;0;0;0;0;0;0;0;0;0;
0;0;0;0;0;0;0;0;0;0;0;0;0;0;0;
0;0;0;0;0;0;0;0;0;0;0;0;0;0;0;
0;0;0;0;0;0;0;0;0;0;0;0;0;0;0;
0;0;0;0;0;0;0;0;0;0;0;0;0;0;0;
0;0;0;0;0;0;0;0;0;0;0;0;0;0;0;
LEVEL
1
0;0;0;0;0;0;0;0;0;0;0;0;0;0;0;
0;0;0;0;0;0;0;0;0;0;0;0;0;0;0;
0;0;0;0;0;0;0;0;0;0;0;0;0;0;0;
0;0;0;0;0;0;0;0;0;0;0;0;0;0;0;
0;0;0;0;0;0;0;0;0;0;0;0;0;0;0;
0;0;0;0;0;0;0;0;0;0;0;0;0;0;0;
0;0;0;0;0;0;9;0;4;0;0;0;0;0;0;
0;0;0;0;0;0;0;8;4;0;0;0;0;0;0;
0;0;0;0;0;0;0;6;0;0;0;0;0;0;0;
0;0;0;0;0;0;0;0;0;0;0;0;0;0;0;
0;0;0;0;0;0;0;0;0;0;0;0;0;0;0;
0;0;0;0;0;0;0;0;0;0;0;0;0;0;0;
0;0;0;0;0;0;0;0;0;0;0;0;0;0;0;
0;0;0;0;0;0;0;0;0;0;0;0;0;0;0;
0;0;0;0;0;0;0;0;0;0;0;0;0;0;0;
LEVEL
2
0;0;0;0;0;0;0;0;0;0;0;0;0;0;0;
0;0;0;0;0;0;0;0;0;0;0;0;0;0;0;
0;0;0;0;0;0;0;8;0;0;0;0;0;0;0;
0;0;0;0;0;0;0;0;4;0;0;0;0;0;0;
0;0;0;0;0;0;0;0;4;0;0;0;0;0;0;
0;0;0;0;0;0;0;0;0;0;0;0;0;0;0;
0;0;0;0;0;0;9;2;0;0;0;0;0;0;0;
0;0;0;0;0;0;0;0;7;0;0;0;0;0;0;
0;0;0;0;0;0;0;0;0;0;0;0;0;0;0;
0;0;0;0;0;0;0;0;0;0;0;0;0;0;0;
0;0;0;0;0;0;0;0;0;0;0;0;0;0;0;
0;0;0;0;0;0;0;0;0;0;0;0;0;0;0;
0;0;0;0;0;0;0;0;0;0;0;0;0;0;0;
0;0;0;0;0;0;0;0;0;0;0;0;0;0;0;
0;0;0;0;0;0;0;0;0;0;0;0;0;0;0;
LEVEL
3
0;0;0;0;0;0;0;0;0;0;0;0;0;0;0;
0;0;0;0;0;0;0;0;0;0;0;0;0;0;0;
0;0;0;0;0;0;8;0;0;0;0;0;0;0;0;
0;0;0;0;0;0;0;2;0;0;0;0;0;0;0;
0;0;0;0;0;0;0;0;0;0;0;0;0;0;0;
0;0;0;0;0;0;0;4;0;0;0;0;0;0;0;
0;0;0;0;0;0;9;4;0;0;0;0;0;0;0;
0;0;0;0;0;0;0;0;0;0;0;0;0;0;0;
0;0;0;0;0;0;0;0;0;0;0;0;0;0;0;
0;0;0;0;0;0;0;0;0;0;0;0;0;0;0;
0;0;0;0;0;0;0;0;0;0;0;0;0;0;0;
0;0;0;0;0;0;0;0;0;0;0;0;0;0;0;
0;0;0;0;0;0;0;0;0;0;0;0;0;0;0;
0;0;0;0;0;0;0;0;0;0;0;0;0;0;0;
0;0;0;0;0;0;0;0;0;0;0;0;0;0;0;
LEVEL
4
0;0;0;0;0;0;0;0;0;0;0;0;0;0;0;
0;0;0;0;0;0;0;0;0;0;0;0;0;0;0;
0;0;0;0;0;0;0;0;0;0;0;0;0;0;0;
0;0;0;0;0;0;0;0;0;0;0;0;0;0;0;
0;0;0;0;0;8;0;0;0;0;0;0;0;0;0;
0;0;0;0;0;0;0;4;0;0;0;0;0;0;0;
0;0;0;0;0;0;9;4;0;0;0;0;0;0;0;
0;0;0;0;0;0;0;0;0;0;0;0;0;0;0;
0;0;0;0;0;0;0;0;0;0;0;0;0;0;0;
0;0;0;0;0;0;0;0;0;0;0;0;0;0;0;
0;0;0;0;0;0;0;0;0;0;0;0;0;0;0;
0;0;0;0;0;0;0;0;0;0;0;0;0;0;0;
0;0;0;0;0;0;0;0;0;0;0;0;0;0;0;
0;0;0;0;0;0;0;0;0;0;0;0;0;0;0;
0;0;0;0;0;0;0;0;0;0;0;0;0;0;0;
LEVEL
5
0;0;0;0;0;0;0;0;0;0;0;0;0;0;0;
0;0;0;0;0;0;0;0;0;0;0;0;0;0;0;
0;0;0;0;0;0;0;0;0;0;0;0;0;0;0;
0;0;0;0;0;0;0;0;0;0;0;0;0;0;0;
0;0;0;0;0;0;0;0;8;0;0;0;0;0;0;
0;0;0;0;0;0;0;0;0;0;0;0;0;0;0;
0;0;0;0;0;0;9;0;0;2;0;0;0;0;0;
0;0;0;0;0;0;0;0;0;0;0;0;0;0;0;
0;0;0;0;0;0;0;0;0;0;0;0;0;0;0;
0;0;0;0;0;0;0;0;0;0;0;0;0;0;0;
0;0;0;0;0;0;0;0;0;0;0;0;0;0;0;
0;0;0;0;0;0;0;0;0;0;0;0;0;0;0;
0;0;0;0;0;0;0;0;0;0;0;0;0;0;0;
0;0;0;0;0;0;0;0;0;0;0;0;0;0;0;
0;0;0;0;0;0;0;0;0;0;0;0;0;0;0;
LEVEL
6
0;0;0;0;0;0;0;0;0;0;0;0;0;0;0;
0;0;0;0;0;0;0;0;0;0;0;0;0;0;0;
0;0;0;0;0;0;0;0;0;0;0;0;0;0;0;
0;0;0;0;0;0;0;0;0;0;0;0;0;0;0;
0;0;0;0;0;0;0;0;0;0;0;0;0;0;0;
0;0;0;0;0;0;0;0;0;0;8;0;0;0;0;
0;0;0;0;0;0;9;0;0;2;0;0;0;0;0;
0;0;0;0;0;0;0;0;0;0;7;0;0;0;0;
0;0;0;0;0;0;0;0;0;0;0;0;0;0;0;
0;0;0;0;0;0;0;0;0;0;0;0;0;0;0;
0;0;0;0;0;0;0;0;0;0;0;0;0;0;0;
0;0;0;0;0;0;0;0;0;0;0;0;0;0;0;
0;0;0;0;0;0;0;0;0;0;0;0;0;0;0;
0;0;0;0;0;0;0;0;0;0;0;0;0;0;0;
0;0;0;0;0;0;0;0;0;0;0;0;0;0;0;
LEVEL
7
0;0;0;0;0;0;0;0;0;0;0;0;0;0;0;
0;0;0;0;0;0;0;0;0;0;0;0;0;0;0;
0;0;0;0;0;0;0;0;0;0;0;0;0;0;0;
0;0;0;0;0;0;0;0;0;0;0;0;0;0;0;
0;0;0;0;0;0;0;0;0;0;0;0;0;0;0;
0;0;0;0;0;0;0;0;0;0;0;0;0;0;0;
0;0;0;0;0;0;9;2;0;0;0;0;0;0;0;
0;0;0;0;0;0;0;0;0;0;0;0;0;0;0;
0;0;0;0;0;0;0;0;8;0;0;0;0;0;0;
0;0;0;0;0;0;0;0;0;0;0;0;0;0;0;
0;0;0;0;0;0;0;0;0;0;0;0;0;0;0;
0;0;0;0;0;0;0;0;0;0;0;0;0;0;0;
0;0;0;0;0;0;0;0;0;0;0;0;0;0;0;
0;0;0;0;0;0;0;0;0;0;0;0;0;0;0;
0;0;0;0;0;0;0;0;0;0;0;0;0;0;0;
ORIENTATIONS
LEVEL
0
2;2;0;0;1;0;2;2;2;2;0;1;2;0;2;
2;2;2;2;2;0;1;1;2;2;1;1;1;2;0;
2;2;2;1;1;1;2;1;1;0;2;0;0;1;2;
2;0;1;0;1;1;0;2;2;0;0;0;2;0;0;
1;1;0;0;0;1;1;2;1;1;2;0;0;2;1;
1;0;1;2;0;0;0;1;0;0;0;0;1;1;2;
2;0;2;2;0;1;3;3;1;2;1;2;2;2;1;
0;1;2;1;2;1;1;2;1;0;0;2;2;0;0;
1;0;2;2;1;1;0;1;1;0;1;0;2;0;2;
0;1;2;1;2;1;1;2;1;1;1;1;2;0;0;
2;0;1;1;0;0;0;2;1;1;2;1;2;2;0;
1;0;1;1;1;2;1;1;0;0;1;0;0;0;1;
2;0;1;2;0;1;1;1;2;1;1;1;1;1;0;
0;1;0;1;1;0;2;1;2;2;0;0;0;2;1;
2;1;1;2;1;0;0;1;2;2;0;1;2;1;0;
LEVEL
1
0;2;0;2;1;2;0;0;1;0;2;1;2;2;1;
2;0;2;1;1;0;0;0;0;0;0;2;1;2;0;
2;0;1;2;0;2;0;1;2;0;1;1;0;0;2;
1;0;0;0;1;0;1;2;2;0;0;0;0;0;2;
2;1;0;1;1;1;0;1;2;2;2;2;1;2;2;
2;2;2;2;1;0;0;2;0;1;2;0;0;0;2;
0;0;1;2;1;0;3;0;1;1;2;2;1;0;0;
1;0;1;1;2;2;2;0;1;1;2;2;2;2;2;
0;2;0;0;2;1;2;0;1;0;0;0;2;0;0;
1;1;0;0;0;1;0;0;2;2;0;0;2;1;2;
1;0;1;2;0;2;0;2;2;0;0;0;0;0;1;
1;1;1;0;1;1;1;2;1;1;0;2;2;1;0;
2;2;0;0;2;1;1;0;1;1;0;0;0;0;1;
1;0;0;1;1;1;0;2;0;2;2;2;1;1;2;
2;2;2;1;0;1;1;0;0;1;2;0;0;0;0;
LEVEL
2
2;0;2;2;0;2;2;0;0;1;2;0;2;2;1;
2;2;2;2;1;2;0;2;0;0;1;1;1;1;0;
2;0;2;1;1;1;0;0;1;0;2;2;0;2;0;
2;2;2;2;0;0;1;1;3;1;2;1;1;1;2;
2;0;0;1;1;1;1;2;3;1;1;2;0;2;2;
1;1;1;0;0;0;1;0;0;1;2;2;2;2;0;
1;1;2;1;2;2;3;1;0;2;2;2;1;1;2;
2;2;2;0;0;2;2;1;0;1;1;2;2;2;0;
2;0;2;0;1;1;1;0;2;2;2;1;0;0;0;
2;1;0;1;2;1;0;2;0;1;1;2;1;2;2;
2;1;0;2;2;2;0;2;0;2;0;2;0;0;2;
2;0;0;0;0;0;0;2;0;2;2;1;1;1;0;
2;0;2;0;1;2;2;1;0;2;0;0;0;0;0;
2;2;1;2;0;2;1;1;1;2;1;0;0;2;0;
0;1;2;2;0;0;1;1;1;2;1;0;0;0;0;
LEVEL
3
0;2;2;0;2;1;1;2;2;0;0;2;0;1;1;
1;0;0;0;1;1;2;0;2;1;1;1;0;0;0;
0;2;2;0;0;1;0;1;0;2;1;2;0;1;1;
1;1;0;1;2;2;1;3;1;1;1;1;2;1;2;
0;0;0;0;0;0;0;1;0;2;2;0;1;1;2;
2;2;0;2;0;1;2;3;2;0;0;1;1;1;1;
1;0;0;2;1;0;3;3;2;1;1;2;1;0;0;
2;1;2;2;2;2;1;2;1;1;2;1;2;2;2;
1;0;2;0;0;2;2;1;0;0;1;1;1;1;2;
0;0;0;2;1;2;0;2;2;0;1;2;0;0;1;
1;0;0;0;2;1;0;1;0;1;1;2;0;2;1;
2;0;2;2;1;0;0;0;2;2;0;2;0;0;0;
1;0;1;2;2;0;0;0;1;1;0;0;1;0;2;
0;1;2;1;2;1;2;1;1;0;0;0;2;1;0;
0;1;1;0;2;0;1;0;2;0;2;2;1;0;0;
LEVEL
4
1;0;1;1;1;2;0;1;2;1;2;1;2;2;0;
1;1;0;1;0;2;2;0;0;0;0;1;2;2;0;
1;0;2;1;2;2;1;0;1;1;0;0;0;2;1;
2;1;0;1;0;1;0;0;1;2;1;2;0;1;1;
2;0;0;0;2;0;1;0;2;0;0;1;1;1;1;
2;1;0;1;0;2;1;3;2;1;2;2;1;1;1;
1;0;0;2;2;2;3;3;0;1;0;1;1;2;1;
0;0;1;2;0;2;2;0;0;0;2;0;1;0;2;
1;0;0;1;2;0;0;2;1;2;2;0;2;0;1;
2;0;2;0;0;1;1;2;2;2;2;2;0;2;1;
1;0;2;1;1;1;2;0;2;1;1;2;1;0;0;
2;0;0;2;0;0;1;2;0;2;1;0;2;0;0;
0;2;0;1;0;0;0;1;2;0;2;2;0;1;2;
2;0;0;1;0;2;1;1;2;2;2;0;0;0;2;
0;2;2;2;0;0;1;0;1;2;1;1;0;1;1;
LEVEL
5
2;2;1;0;1;1;1;2;2;1;2;1;0;2;0;
0;1;2;1;1;2;1;2;2;1;1;0;0;2;0;
0;1;1;1;2;1;0;2;2;0;0;0;2;0;1;
0;1;2;1;1;1;1;0;1;0;2;1;1;2;1;
2;0;1;1;1;1;2;0;0;2;0;1;0;0;1;
2;1;2;1;1;2;0;1;0;0;0;2;1;1;1;
1;2;1;2;2;2;3;1;1;3;1;1;0;1;2;
0;1;0;2;2;1;0;1;2;2;0;1;2;2;0;
1;0;2;1;0;0;0;0;2;0;2;2;2;2;1;
2;0;2;1;0;0;0;0;1;2;2;1;2;2;2;
1;0;1;0;0;2;0;2;1;2;1;0;2;2;1;
1;2;0;1;2;2;1;2;2;1;1;2;0;0;2;
1;1;1;1;2;1;1;1;0;1;2;2;0;0;2;
2;2;0;2;2;1;0;0;0;0;0;1;0;1;0;
2;2;2;2;2;2;2;2;2;2;0;1;1;2;2;
LEVEL
6
1;1;2;1;2;0;2;1;1;0;1;2;0;2;0;
2;1;1;1;2;0;2;0;1;1;1;0;1;1;2;
1;1;1;0;1;2;0;2;1;2;0;2;0;2;1;
0;2;2;0;0;1;1;1;0;0;1;1;0;0;1;
1;0;0;0;0;2;2;0;2;1;0;0;0;1;1;
0;1;0;1;1;1;1;0;2;0;0;2;0;0;0;
2;2;1;0;1;0;3;1;0;1;0;2;1;0;0;
0;2;2;2;1;2;1;2;0;2;0;1;0;1;0;
0;0;1;0;2;2;0;2;0;0;2;0;0;1;2;
2;2;1;0;1;0;2;2;1;2;2;2;2;2;0;
0;0;2;0;2;2;2;2;1;2;2;2;1;1;2;
2;1;1;2;2;1;1;0;1;1;1;0;0;0;0;
1;0;1;2;0;2;0;0;0;2;0;0;2;2;2;
1;2;2;0;0;2;1;1;0;1;0;2;0;2;0;
0;2;2;2;0;0;1;2;1;1;0;2;1;0;2;
LEVEL
7
2;2;2;2;2;0;1;2;1;1;2;0;0;1;0;
1;2;2;1;2;2;2;2;1;2;1;0;2;2;0;
0;1;1;1;0;2;2;0;0;0;1;0;0;1;0;
2;1;1;2;2;0;2;2;1;0;0;0;2;1;2;
2;1;0;0;2;2;1;0;2;2;0;0;2;0;2;
0;2;0;2;2;0;2;1;0;0;2;0;0;2;2;
0;2;1;2;1;1;3;1;1;1;1;0;2;1;1;
1;1;2;0;2;1;0;1;1;1;2;0;0;2;0;
2;1;2;1;1;1;0;2;0;1;2;2;2;1;1;
0;2;2;1;1;1;0;1;2;2;0;1;2;0;2;
1;0;0;0;0;2;2;2;1;0;1;1;1;0;0;
1;2;1;0;0;0;0;1;2;2;2;0;1;0;1;
0;0;1;0;2;1;1;2;1;0;0;0;0;0;0;
2;1;2;1;2;1;1;0;0;0;1;2;0;0;2;
0;1;1;1;0;0;1;2;0;1;1;1;1;0;1;
PLACED CARDS
LEVEL; CARD
0; Move1(Clone)
0; Move1(Clone)
0; RLeft(Clone)
1; Move1(Clone)
1; RLeft(Clone)
1; Move2(Clone)
1; Move1(Clone)
1; Move2(Clone)
2; Move1(Clone)
2; Move1(Clone)
2; Move3(Clone)
2; UTurn(Clone)
2; Move3(Clone)
3; Move1(Clone)
3; RLeft(Clone)
3; RLeft(Clone)
3; Move1(Clone)
3; Move2(Clone)
4; Move1(Clone)
4; Move3(Clone)
4; Move1(Clone)
4; RLeft(Clone)
4; Move1(Clone)
5; Move1(Clone)
5; RRight(Clone)
5; Back(Clone)
5; RRight(Clone)
5; Move1(Clone)
6; Move1(Clone)
6; RLeft(Clone)
6; RLeft(Clone)
6; Move1(Clone)
6; Move1(Clone)
7; Move3(Clone)
7; RRight(Clone)
7; Back(Clone)
7; RRight(Clone)
7; Move1(Clone)
8; Move2(Clone)
8; Move1(Clone)
8; Move3(Clone)
8; RLeft(Clone)
8; RRight(Clone)
9; Move1(Clone)
9; RRight(Clone)
9; Back(Clone)
9; Move1(Clone)
CORRECT COMBINATIONS
LEVEL; COMBINATION
0; C_M1-F_F1
0; C_RL
0; C_B-F_FN
0; C_RR
0; C_M1-F_G
1; C_M1-F_F1
1; C_RL
1; C_B-F_FN
1; C_RR
1; C_M1-F_G
2; C_M1-F_F1
2; C_RL
2; C_B-F_FN
2; C_RR
2; C_M1-F_G
3; C_M1-F_F1
3; C_RL
3; C_B-F_FN
3; C_RR
3; C_M1-F_G
4; C_M1-F_F1
4; C_RL
4; C_B-F_FN
4; C_RR
4; C_M1-F_G
5; C_M1-F_F1
5; C_RL
5; C_B-F_FN
5; C_RR
5; C_M1-F_G
6; C_M1-F_F1
6; C_RL
6; C_B-F_FN
6; C_RR
6; C_M1-F_G
7; C_M1-F_F1
7; C_RL
7; C_B-F_FN
7; C_RR
7; C_M1-F_G
NUMBER OF CORRECT PLACED CARDS
LEVEL; CORRECT
0; 1
1; 0
2; 1
3; 5
4; 5
5; 5
6; 0
7; 1
TIME BETWEEN CARDS
LEVEL; CARD TIME
2; 9.843455
2; 20.34238
2; 1.419237
2; 1.810404
2; 1.155773
3; 10.57515
3; 6.126362
3; 1.865612
3; 10.69469
3; 0.9741592
4; 10.77307
4; 7.310005
4; 3.439095
4; 0.9187469
4; 1.448303
5; 7.387619
5; 2.742447
5; 7.782928
5; 4.568192
5; 1.196045
6; 8.62957
6; 6.642105
6; 0.8767624
6; 0.6820526
6; 0.7386932
7; 17.80283
7; 1.225311
7; 1.101227
7; 0.9048157
7; 1.406052
8; 13.04979
8; 2.213928
8; 5.77829
8; 0.7795105
8; 0.9064484
9; 5.379852
9; 2.089447
9; 8.395096
9; 4.428925
9; 0.7522736
LEVEL TIMES
LEVEL; ELAPSED TIME
0; 0
1; 0
2; 34.57125
3; 64.80722
4; 88.69644
5; 112.3737
6; 129.9429
7; 152.3831
8; 175.1111
9; 196.1566
TOTAL TIME
0CARDS GRABBED
LEVEL; ELAPSED TIME; CARD
0; 0; RRight
0; 0; Move1
0; 0; Move1
0; 0; Move1
0; 0; Move1
0; 0; Move1
0; 0; RLeft
0; 0; Move3
0; 0; RRight
0; 0; RRight
0; 0; RRight
0; 0; RRight
0; 0; RRight
0; 0; Move3
0; 0; Move3
0; 0; Move3
0; 0; Move3
0; 0; Move3
0; 0; RLeft
0; 0; RLeft
0; 0; Move1
0; 0; Move1
0; 0; RLeft
0; 0; RLeft
0; 0; Move2
0; 0; Move2
0; 0; Move1
0; 0; Move1
0; 0; Move2
0; 0; Move2
1; 6.779447; Move1
1; 9.843455; Move1
1; 29.61389; Move1
1; 30.18584; Move1
1; 31.38262; Move3
1; 31.60507; Move3
1; 32.66338; UTurn
1; 33.41548; UTurn
1; 33.84697; Move3
1; 34.57125; Move3
2; 44.24107; Move1
2; 45.1464; Move1
2; 50.54869; RLeft
2; 51.27276; RLeft
2; 52.20616; RLeft
2; 53.13837; RLeft
2; 56.82808; Move2
2; 59.39053; Move1
2; 60.45428; Move1
2; 62.14868; Move1
2; 63.83306; Move1
2; 64.25067; Move2
2; 64.80722; Move2
3; 74.44483; Move1
3; 75.58029; Move1
3; 82.02654; Move3
3; 82.8903; Move3
3; 84.74182; Move1
3; 86.32939; Move1
3; 86.67728; RLeft
3; 87.24814; RLeft
3; 87.73527; Move1
3; 88.69644; Move1
4; 93.10436; Move1
4; 96.08406; Move1
4; 97.73991; RRight
4; 98.82651; RRight
4; 99.82934; RRight
4; 105.6633; Back
4; 106.6094; Back
4; 110.4524; RRight
4; 111.1776; RRight
4; 111.6095; Move1
4; 112.3737; Move1
5; 119.36; Move1
5; 121.0032; Move1
5; 126.489; RLeft
5; 127.6453; RLeft
5; 127.9937; RLeft
5; 128.5221; RLeft
5; 128.7862; Move1
5; 129.2042; Move1
5; 129.483; Move1
5; 129.9429; Move1
6; 143.9447; Move3
6; 147.7457; Move3
6; 148.4281; RRight
6; 148.971; RRight
6; 149.5139; Back
6; 150.0722; Back
6; 150.4747; RRight
6; 150.977; RRight
6; 151.4778; Move1
6; 152.3831; Move1
7; 163.4701; Move1
7; 164.8481; Move2
7; 165.4329; Move2
7; 166.8549; Move1
7; 167.6468; Move1
7; 172.6319; Move3
7; 173.4251; Move3
7; 173.7735; RLeft
7; 174.2046; RLeft
7; 174.5808; RRight
7; 175.1111; RRight
8; 178.9039; Move1
8; 180.4909; Move1
8; 181.034; RRight
8; 182.5804; RRight
8; 187.3419; Back
8; 188.2884; Back
8; 189.1525; Back
8; 190.0849; RLeft
8; 190.9754; RLeft
8; 194.6097; Back
8; 195.4044; Back
8; 195.6961; Move1
8; 196.1566; Move1
CARDS DROPPED
LEVEL; ELAPSED TIME; CARD
0; 0; RRight
0; 0; Move1
0; 0; Move1
0; 0; Move1
0; 0; Move1
0; 0; Move1
0; 0; RLeft
0; 0; Move3
0; 0; RRight
0; 0; RRight
0; 0; RRight
0; 0; RRight
0; 0; RRight
0; 0; Move3
0; 0; Move3
0; 0; Move3
0; 0; Move3
0; 0; Move3
0; 0; RLeft
0; 0; RLeft
0; 0; Move1
0; 0; Move1
0; 0; RLeft
0; 0; RLeft
0; 0; Move2
0; 0; Move2
0; 0; Move1
0; 0; Move1
0; 0; Move2
0; 0; Move2
1; 9.815421; Move1
1; 10.06882; Move1
1; 30.18584; Move1
1; 30.43636; Move1
1; 31.60507; Move3
1; 31.85574; Move3
1; 33.41548; UTurn
1; 33.63787; UTurn
1; 34.57125; Move3
1; 34.57125; Move3
2; 45.11811; Move1
2; 45.38297; Move1
2; 51.27276; RLeft
2; 51.49647; RLeft
2; 53.13837; RLeft
2; 53.3753; RLeft
2; 58.97262; Move2
2; 60.04482; Move1
2; 61.35473; Move1
2; 63.83306; Move1
2; 64.08387; Move1
2; 64.80722; Move2
2; 64.80722; Move2
3; 75.55197; Move1
3; 75.80329; Move1
3; 82.8903; Move3
3; 83.11296; Move3
3; 86.32939; Move1
3; 86.55283; Move1
3; 87.24814; RLeft
3; 87.48467; RLeft
3; 88.69644; Move1
3; 88.69644; Move1
4; 96.05546; Move1
4; 96.32121; Move1
4; 98.82651; RRight
4; 99.07767; RRight
4; 103.7136; RRight
4; 106.6094; Back
4; 106.861; Back
4; 111.1776; RRight
4; 111.414; RRight
4; 112.3737; Move1
4; 112.3737; Move1
5; 120.9759; Move1
5; 121.2264; Move1
5; 127.6453; RLeft
5; 127.8698; RLeft
5; 128.5221; RLeft
5; 128.7734; RLeft
5; 129.2042; Move1
5; 129.4276; Move1
5; 129.9429; Move1
5; 129.9429; Move1
6; 147.7173; Move3
6; 147.9688; Move3
6; 148.971; RRight
6; 149.2083; RRight
6; 150.0722; Back
6; 150.2937; Back
6; 150.977; RRight
6; 151.1986; RRight
6; 152.3831; Move1
6; 152.3831; Move1
7; 164.472; Move1
7; 165.4046; Move2
7; 165.656; Move2
7; 167.6468; Move1
7; 167.8835; Move1
7; 173.4251; Move3
7; 173.6756; Move3
7; 174.2046; RLeft
7; 174.4281; RLeft
7; 175.1111; RRight
7; 175.1111; RRight
8; 180.4772; Move1
8; 180.7274; Move1
8; 182.5804; RRight
8; 182.8304; RRight
8; 187.8852; Back
8; 188.7624; Back
8; 189.4859; Back
8; 190.9754; RLeft
8; 191.1981; RLeft
8; 195.4044; Back
8; 195.6399; Back
8; 196.1566; Move1
8; 196.1566; Move1
